plane u v nvertices vx_0 vy_0 vx_1 vy_1 vx_2 vy_2 vx_3 vy_3 vx_4 vy_4 vx_5 vy_5 vx_6 vy_6
1 2 0 6 334.900 96.700 316.000 85.800 316.000 -85.800 334.900 -96.700 418.600 -48.300 418.600 48.300 334.900 96.700
1 2 1 5 251.200 241.700 232.300 230.800 316.000 85.800 334.900 96.700 334.900 193.300 251.200 241.700 0.000 0.000
1 1 2 5 -83.700 338.400 -83.700 316.600 83.700 316.600 83.700 338.400 0.000 386.700 -83.700 338.400 0.000 0.000
1 2 2 6 83.700 338.400 83.700 316.600 232.300 230.800 251.200 241.700 251.200 338.400 167.400 386.700 83.700 338.400
1 10 3 4 1423.200 338.400 1423.200 531.700 1339.500 483.400 1339.500 386.700 1423.200 338.400 0.000 0.000 0.000 0.000
1 10 4 5 1339.500 483.400 1381.400 507.500 1297.700 652.500 1255.800 628.400 1255.800 531.700 1339.500 483.400 0.000 0.000
1 10 5 5 1255.800 628.400 1297.700 652.500 1213.900 797.500 1172.100 773.400 1172.100 676.700 1255.800 628.400 0.000 0.000
1 10 6 5 1172.100 773.400 1214.000 797.500 1130.200 942.600 1088.400 918.400 1088.400 821.700 1172.100 773.400 0.000 0.000
1 10 7 4 1172.100 966.700 1004.600 1063.400 1004.600 966.700 1088.400 918.400 1172.100 966.700 0.000 0.000 0.000 0.000
1 9 8 4 920.900 1111.700 753.500 1208.400 753.500 1111.700 837.200 1063.400 920.900 1111.700 0.000 0.000 0.000 0.000
1 1 9 4 -502.300 1353.400 -669.800 1256.700 -586.000 1208.400 -502.300 1256.700 -502.300 1353.400 0.000 0.000 0.000 0.000
1 3 10 4 -251.200 1498.400 -418.600 1401.700 -334.900 1353.400 -251.200 1401.700 -251.200 1498.400 0.000 0.000 0.000 0.000
1 4 10 5 -83.700 1401.700 -83.700 1450.100 -251.200 1450.100 -251.200 1401.700 -167.400 1353.400 -83.700 1401.700 0.000 0.000
1 5 10 5 83.700 1401.700 83.700 1450.100 -83.700 1450.100 -83.700 1401.700 -0.000 1353.400 83.700 1401.700 0.000 0.000
1 6 10 5 251.200 1401.700 251.200 1450.100 83.700 1450.100 83.700 1401.700 167.400 1353.400 251.200 1401.700 0.000 0.000
1 7 10 4 418.600 1401.700 251.200 1498.400 251.200 1401.700 334.900 1353.400 418.600 1401.700 0.000 0.000 0.000 0.000
2 9 1 4 1423.200 48.300 1423.200 241.700 1339.500 193.300 1339.500 96.700 1423.200 48.300 0.000 0.000 0.000 0.000
2 8 9 4 669.800 1256.700 502.300 1353.400 502.300 1256.700 586.000 1208.400 669.800 1256.700 0.000 0.000 0.000 0.000
2 2 0 6 334.900 96.700 316.000 85.800 316.000 -85.800 334.900 -96.700 418.600 -48.300 418.600 48.300 334.900 96.700
2 2 1 5 251.200 241.700 232.300 230.800 316.000 85.800 334.900 96.700 334.900 193.300 251.200 241.700 0.000 0.000
2 1 2 5 -83.700 338.400 -83.700 316.600 83.700 316.600 83.700 338.400 0.000 386.700 -83.700 338.400 0.000 0.000
2 2 2 6 83.700 338.400 83.700 316.600 232.300 230.800 251.200 241.700 251.200 338.400 167.400 386.700 83.700 338.400
2 9 8 4 920.900 1111.700 753.500 1208.400 753.500 1111.700 837.200 1063.400 920.900 1111.700 0.000 0.000 0.000 0.000
2 1 9 4 -502.300 1353.400 -669.800 1256.700 -586.000 1208.400 -502.300 1256.700 -502.300 1353.400 0.000 0.000 0.000 0.000
2 4 10 5 -83.700 1401.700 -83.700 1450.100 -251.200 1450.100 -251.200 1401.700 -167.400 1353.400 -83.700 1401.700 0.000 0.000
2 10 6 5 1172.100 773.400 1213.900 797.500 1130.200 942.600 1088.400 918.400 1088.400 821.700 1172.100 773.400 0.000 0.000
2 5 10 5 83.700 1401.700 83.700 1450.100 -83.700 1450.100 -83.700 1401.700 -0.000 1353.400 83.700 1401.700 0.000 0.000
2 10 5 5 1255.800 628.400 1297.700 652.500 1213.900 797.500 1172.100 773.400 1172.100 676.700 1255.800 628.400 0.000 0.000
2 6 10 5 251.200 1401.700 251.200 1450.100 83.700 1450.100 83.700 1401.700 167.400 1353.400 251.200 1401.700 0.000 0.000
2 10 4 5 1339.500 483.400 1381.400 507.500 1297.700 652.500 1255.800 628.400 1255.800 531.700 1339.500 483.400 0.000 0.000
3 2 0 6 334.900 96.700 316.000 85.800 316.000 -85.800 334.900 -96.700 418.600 -48.300 418.600 48.300 334.900 96.700
3 2 1 5 251.200 241.700 232.300 230.800 316.000 85.800 334.900 96.700 334.900 193.300 251.200 241.700 0.000 0.000
3 1 2 5 -83.700 338.400 -83.700 316.600 83.700 316.600 83.700 338.400 0.000 386.700 -83.700 338.400 0.000 0.000
3 2 2 6 83.700 338.400 83.700 316.600 232.300 230.800 251.200 241.700 251.200 338.400 167.400 386.700 83.700 338.400
3 10 3 4 1423.200 338.400 1423.200 531.700 1339.500 483.400 1339.500 386.700 1423.200 338.400 0.000 0.000 0.000 0.000
3 10 4 5 1339.500 483.400 1381.400 507.500 1297.700 652.500 1255.800 628.400 1255.800 531.700 1339.500 483.400 0.000 0.000
3 10 5 5 1255.800 628.400 1297.700 652.500 1213.900 797.500 1172.100 773.400 1172.100 676.700 1255.800 628.400 0.000 0.000
3 10 6 5 1172.100 773.400 1214.000 797.500 1130.200 942.600 1088.400 918.400 1088.400 821.700 1172.100 773.400 0.000 0.000
3 10 7 4 1172.100 966.700 1004.600 1063.400 1004.600 966.700 1088.400 918.400 1172.100 966.700 0.000 0.000 0.000 0.000
3 9 8 4 920.900 1111.700 753.500 1208.400 753.500 1111.700 837.200 1063.400 920.900 1111.700 0.000 0.000 0.000 0.000
3 1 9 4 -502.300 1353.400 -669.800 1256.700 -586.000 1208.400 -502.300 1256.700 -502.300 1353.400 0.000 0.000 0.000 0.000
3 3 10 4 -251.200 1498.400 -418.600 1401.700 -334.900 1353.400 -251.200 1401.700 -251.200 1498.400 0.000 0.000 0.000 0.000
3 4 10 5 -83.700 1401.700 -83.700 1450.100 -251.200 1450.100 -251.200 1401.700 -167.400 1353.400 -83.700 1401.700 0.000 0.000
3 5 10 5 83.700 1401.700 83.700 1450.100 -83.700 1450.100 -83.700 1401.700 -0.000 1353.400 83.700 1401.700 0.000 0.000
3 6 10 5 251.200 1401.700 251.200 1450.100 83.700 1450.100 83.700 1401.700 167.400 1353.400 251.200 1401.700 0.000 0.000
3 7 10 4 418.600 1401.700 251.200 1498.400 251.200 1401.700 334.900 1353.400 418.600 1401.700 0.000 0.000 0.000 0.000
4 9 1 4 1423.200 48.300 1423.200 241.700 1339.500 193.300 1339.500 96.700 1423.200 48.300 0.000 0.000 0.000 0.000
4 8 9 4 669.800 1256.700 502.300 1353.400 502.300 1256.700 586.000 1208.400 669.800 1256.700 0.000 0.000 0.000 0.000
4 2 0 6 334.900 96.700 316.000 85.800 316.000 -85.800 334.900 -96.700 418.600 -48.300 418.600 48.300 334.900 96.700
4 2 1 5 251.200 241.700 232.300 230.800 316.000 85.800 334.900 96.700 334.900 193.300 251.200 241.700 0.000 0.000
4 1 2 5 -83.700 338.400 -83.700 316.600 83.700 316.600 83.700 338.400 0.000 386.700 -83.700 338.400 0.000 0.000
4 2 2 6 83.700 338.400 83.700 316.600 232.300 230.800 251.200 241.700 251.200 338.400 167.400 386.700 83.700 338.400
4 9 8 4 920.900 1111.700 753.500 1208.400 753.500 1111.700 837.200 1063.400 920.900 1111.700 0.000 0.000 0.000 0.000
4 1 9 4 -502.300 1353.400 -669.800 1256.700 -586.000 1208.400 -502.300 1256.700 -502.300 1353.400 0.000 0.000 0.000 0.000
4 4 10 5 -83.700 1401.700 -83.700 1450.100 -251.200 1450.100 -251.200 1401.700 -167.400 1353.400 -83.700 1401.700 0.000 0.000
4 10 6 5 1172.100 773.400 1213.900 797.500 1130.200 942.600 1088.400 918.400 1088.400 821.700 1172.100 773.400 0.000 0.000
4 5 10 5 83.700 1401.700 83.700 1450.100 -83.700 1450.100 -83.700 1401.700 -0.000 1353.400 83.700 1401.700 0.000 0.000
4 10 5 5 1255.800 628.400 1297.700 652.500 1213.900 797.500 1172.100 773.400 1172.100 676.700 1255.800 628.400 0.000 0.000
4 6 10 5 251.200 1401.700 251.200 1450.100 83.700 1450.100 83.700 1401.700 167.400 1353.400 251.200 1401.700 0.000 0.000
4 10 4 5 1339.500 483.400 1381.400 507.500 1297.700 652.500 1255.800 628.400 1255.800 531.700 1339.500 483.400 0.000 0.000
5 2 0 6 334.900 96.700 316.000 85.800 316.000 -85.800 334.900 -96.700 418.600 -48.300 418.600 48.300 334.900 96.700
5 2 1 5 251.200 241.700 232.300 230.800 316.000 85.800 334.900 96.700 334.900 193.300 251.200 241.700 0.000 0.000
5 1 2 5 -83.700 338.400 -83.700 316.600 83.700 316.600 83.700 338.400 0.000 386.700 -83.700 338.400 0.000 0.000
5 2 2 6 83.700 338.400 83.700 316.600 232.300 230.800 251.200 241.700 251.200 338.400 167.400 386.700 83.700 338.400
5 10 3 4 1423.200 338.400 1423.200 531.700 1339.500 483.400 1339.500 386.700 1423.200 338.400 0.000 0.000 0.000 0.000
5 10 4 5 1339.500 483.400 1381.400 507.500 1297.700 652.500 1255.800 628.400 1255.800 531.700 1339.500 483.400 0.000 0.000
5 10 5 5 1255.800 628.400 1297.700 652.500 1213.900 797.500 1172.100 773.400 1172.100 676.700 1255.800 628.400 0.000 0.000
5 10 6 5 1172.100 773.400 1214.000 797.500 1130.200 942.600 1088.400 918.400 1088.400 821.700 1172.100 773.400 0.000 0.000
5 10 7 4 1172.100 966.700 1004.600 1063.400 1004.600 966.700 1088.400 918.400 1172.100 966.700 0.000 0.000 0.000 0.000
5 9 8 4 920.900 1111.700 753.500 1208.400 753.500 1111.700 837.200 1063.400 920.900 1111.700 0.000 0.000 0.000 0.000
5 1 9 4 -502.300 1353.400 -669.800 1256.700 -586.000 1208.400 -502.300 1256.700 -502.300 1353.400 0.000 0.000 0.000 0.000
5 3 10 4 -251.200 1498.400 -418.600 1401.700 -334.900 1353.400 -251.200 1401.700 -251.200 1498.400 0.000 0.000 0.000 0.000
5 4 10 5 -83.700 1401.700 -83.700 1450.100 -251.200 1450.100 -251.200 1401.700 -167.400 1353.400 -83.700 1401.700 0.000 0.000
5 5 10 5 83.700 1401.700 83.700 1450.100 -83.700 1450.100 -83.700 1401.700 -0.000 1353.400 83.700 1401.700 0.000 0.000
5 6 10 5 251.200 1401.700 251.200 1450.100 83.700 1450.100 83.700 1401.700 167.400 1353.400 251.200 1401.700 0.000 0.000
5 7 10 4 418.600 1401.700 251.200 1498.400 251.200 1401.700 334.900 1353.400 418.600 1401.700 0.000 0.000 0.000 0.000
6 9 1 4 1423.200 48.300 1423.200 241.700 1339.500 193.300 1339.500 96.700 1423.200 48.300 0.000 0.000 0.000 0.000
6 8 9 4 669.800 1256.700 502.300 1353.400 502.300 1256.700 586.000 1208.400 669.800 1256.700 0.000 0.000 0.000 0.000
6 2 0 6 334.900 96.700 316.000 85.800 316.000 -85.800 334.900 -96.700 418.600 -48.300 418.600 48.300 334.900 96.700
6 2 1 5 251.200 241.700 232.300 230.800 316.000 85.800 334.900 96.700 334.900 193.300 251.200 241.700 0.000 0.000
6 1 2 5 -83.700 338.400 -83.700 316.600 83.700 316.600 83.700 338.400 0.000 386.700 -83.700 338.400 0.000 0.000
6 2 2 6 83.700 338.400 83.700 316.600 232.300 230.800 251.200 241.700 251.200 338.400 167.400 386.700 83.700 338.400
6 10 4 5 1339.500 483.400 1381.400 507.500 1297.700 652.500 1255.800 628.400 1255.800 531.700 1339.500 483.400 0.000 0.000
6 10 5 5 1255.800 628.400 1297.700 652.500 1213.900 797.500 1172.100 773.400 1172.100 676.700 1255.800 628.400 0.000 0.000
6 10 6 5 1172.100 773.400 1213.900 797.500 1130.200 942.600 1088.400 918.400 1088.400 821.700 1172.100 773.400 0.000 0.000
6 9 8 4 920.900 1111.700 753.500 1208.400 753.500 1111.700 837.200 1063.400 920.900 1111.700 0.000 0.000 0.000 0.000
6 1 9 4 -502.300 1353.400 -669.800 1256.700 -586.000 1208.400 -502.300 1256.700 -502.300 1353.400 0.000 0.000 0.000 0.000
6 4 10 5 -83.700 1401.700 -83.700 1450.100 -251.200 1450.100 -251.200 1401.700 -167.400 1353.400 -83.700 1401.700 0.000 0.000
6 5 10 5 83.700 1401.700 83.700 1450.100 -83.700 1450.100 -83.700 1401.700 -0.000 1353.400 83.700 1401.700 0.000 0.000
6 6 10 5 251.200 1401.700 251.200 1450.100 83.700 1450.100 83.700 1401.700 167.400 1353.400 251.200 1401.700 0.000 0.000
6 10 7 4 1172.100 966.700 1004.600 1063.400 1004.600 966.700 1088.400 918.400 1172.100 966.700 0.000 0.000 0.000 0.000
6 3 10 4 -251.200 1498.400 -418.600 1401.700 -334.900 1353.400 -251.200 1401.700 -251.200 1498.400 0.000 0.000 0.000 0.000
6 7 10 4 418.600 1401.700 251.200 1498.400 251.200 1401.700 334.900 1353.400 418.600 1401.700 0.000 0.000 0.000 0.000
6 10 3 4 1423.200 338.400 1423.200 531.700 1339.500 483.400 1339.500 386.700 1423.200 338.400 0.000 0.000 0.000 0.000
7 2 0 6 334.900 96.700 316.000 85.800 316.000 -85.800 334.900 -96.700 418.600 -48.300 418.600 48.300 334.900 96.700
7 2 1 5 251.200 241.700 232.300 230.800 316.000 85.800 334.900 96.700 334.900 193.300 251.200 241.700 0.000 0.000
7 1 2 5 -83.700 338.400 -83.700 316.600 83.700 316.600 83.700 338.400 0.000 386.700 -83.700 338.400 0.000 0.000
7 2 2 6 83.700 338.400 83.700 316.600 232.300 230.800 251.200 241.700 251.200 338.400 167.400 386.700 83.700 338.400
7 10 3 4 1423.200 338.400 1423.200 531.700 1339.500 483.400 1339.500 386.700 1423.200 338.400 0.000 0.000 0.000 0.000
7 10 4 5 1339.500 483.400 1381.400 507.500 1297.700 652.500 1255.800 628.400 1255.800 531.700 1339.500 483.400 0.000 0.000
7 10 5 5 1255.800 628.400 1297.700 652.500 1213.900 797.500 1172.100 773.400 1172.100 676.700 1255.800 628.400 0.000 0.000
7 10 6 5 1172.100 773.400 1214.000 797.500 1130.200 942.600 1088.400 918.400 1088.400 821.700 1172.100 773.400 0.000 0.000
7 10 7 4 1172.100 966.700 1004.600 1063.400 1004.600 966.700 1088.400 918.400 1172.100 966.700 0.000 0.000 0.000 0.000
7 9 8 4 920.900 1111.700 753.500 1208.400 753.500 1111.700 837.200 1063.400 920.900 1111.700 0.000 0.000 0.000 0.000
7 1 9 4 -502.300 1353.400 -669.800 1256.700 -586.000 1208.400 -502.300 1256.700 -502.300 1353.400 0.000 0.000 0.000 0.000
7 3 10 4 -251.200 1498.400 -418.600 1401.700 -334.900 1353.400 -251.200 1401.700 -251.200 1498.400 0.000 0.000 0.000 0.000
7 4 10 5 -83.700 1401.700 -83.700 1450.100 -251.200 1450.100 -251.200 1401.700 -167.400 1353.400 -83.700 1401.700 0.000 0.000
7 5 10 5 83.700 1401.700 83.700 1450.100 -83.700 1450.100 -83.700 1401.700 -0.000 1353.400 83.700 1401.700 0.000 0.000
7 6 10 5 251.200 1401.700 251.200 1450.100 83.700 1450.100 83.700 1401.700 167.400 1353.400 251.200 1401.700 0.000 0.000
7 7 10 4 418.600 1401.700 251.200 1498.400 251.200 1401.700 334.900 1353.400 418.600 1401.700 0.000 0.000 0.000 0.000
8 9 1 4 1423.200 48.300 1423.200 241.700 1339.500 193.300 1339.500 96.700 1423.200 48.300 0.000 0.000 0.000 0.000
8 8 9 4 669.800 1256.700 502.300 1353.400 502.300 1256.700 586.000 1208.400 669.800 1256.700 0.000 0.000 0.000 0.000
8 2 0 6 334.900 96.700 316.000 85.800 316.000 -85.800 334.900 -96.700 418.600 -48.300 418.600 48.300 334.900 96.700
8 2 1 5 251.200 241.700 232.300 230.800 316.000 85.800 334.900 96.700 334.900 193.300 251.200 241.700 0.000 0.000
8 1 2 5 -83.700 338.400 -83.700 316.600 83.700 316.600 83.700 338.400 0.000 386.700 -83.700 338.400 0.000 0.000
8 2 2 6 83.700 338.400 83.700 316.600 232.300 230.800 251.200 241.700 251.200 338.400 167.400 386.700 83.700 338.400
8 10 4 5 1339.500 483.400 1381.400 507.500 1297.700 652.500 1255.800 628.400 1255.800 531.700 1339.500 483.400 0.000 0.000
8 10 5 5 1255.800 628.400 1297.700 652.500 1213.900 797.500 1172.100 773.400 1172.100 676.700 1255.800 628.400 0.000 0.000
8 10 6 5 1172.100 773.400 1213.900 797.500 1130.200 942.600 1088.400 918.400 1088.400 821.700 1172.100 773.400 0.000 0.000
8 9 8 4 920.900 1111.700 753.500 1208.400 753.500 1111.700 837.200 1063.400 920.900 1111.700 0.000 0.000 0.000 0.000
8 1 9 4 -502.300 1353.400 -669.800 1256.700 -586.000 1208.400 -502.300 1256.700 -502.300 1353.400 0.000 0.000 0.000 0.000
8 4 10 5 -83.700 1401.700 -83.700 1450.100 -251.200 1450.100 -251.200 1401.700 -167.400 1353.400 -83.700 1401.700 0.000 0.000
8 5 10 5 83.700 1401.700 83.700 1450.100 -83.700 1450.100 -83.700 1401.700 -0.000 1353.400 83.700 1401.700 0.000 0.000
8 6 10 5 251.200 1401.700 251.200 1450.100 83.700 1450.100 83.700 1401.700 167.400 1353.400 251.200 1401.700 0.000 0.000
8 10 7 4 1172.100 966.700 1004.600 1063.400 1004.600 966.700 1088.400 918.400 1172.100 966.700 0.000 0.000 0.000 0.000
8 3 10 4 -251.200 1498.400 -418.600 1401.700 -334.900 1353.400 -251.200 1401.700 -251.200 1498.400 0.000 0.000 0.000 0.000
8 7 10 4 418.600 1401.700 251.200 1498.400 251.200 1401.700 334.900 1353.400 418.600 1401.700 0.000 0.000 0.000 0.000
8 10 3 4 1423.200 338.400 1423.200 531.700 1339.500 483.400 1339.500 386.700 1423.200 338.400 0.000 0.000 0.000 0.000
9 2 0 6 334.900 96.700 316.000 85.800 316.000 -85.800 334.900 -96.700 418.600 -48.300 418.600 48.300 334.900 96.700
9 2 1 5 251.200 241.700 232.300 230.800 316.000 85.800 334.900 96.700 334.900 193.300 251.200 241.700 0.000 0.000
9 1 2 5 -83.700 338.400 -83.700 316.600 83.700 316.600 83.700 338.400 0.000 386.700 -83.700 338.400 0.000 0.000
9 2 2 6 83.700 338.400 83.700 316.600 232.300 230.800 251.200 241.700 251.200 338.400 167.400 386.700 83.700 338.400
9 9 0 4 1507.000 -96.700 1507.000 96.700 1423.200 48.300 1423.200 -48.300 1507.000 -96.700 0.000 0.000 0.000 0.000
9 10 2 4 1507.000 193.300 1507.000 386.700 1423.200 338.400 1423.200 241.700 1507.000 193.300 0.000 0.000 0.000 0.000
9 10 3 4 1423.200 338.300 1423.200 531.700 1339.500 483.400 1339.500 386.700 1423.200 338.300 0.000 0.000 0.000 0.000
9 10 5 5 1255.800 628.400 1297.700 652.500 1213.900 797.500 1172.100 773.400 1172.100 676.700 1255.800 628.400 0.000 0.000
9 10 7 4 1172.100 966.700 1004.600 1063.400 1004.600 966.700 1088.400 918.400 1172.100 966.700 0.000 0.000 0.000 0.000
9 10 8 4 1088.400 1111.700 920.900 1208.400 920.900 1111.700 1004.600 1063.400 1088.400 1111.700 0.000 0.000 0.000 0.000
9 9 9 4 837.200 1256.700 669.800 1353.400 669.800 1256.700 753.500 1208.400 837.200 1256.700 0.000 0.000 0.000 0.000
9 2 10 4 -418.600 1498.400 -586.000 1401.700 -502.300 1353.400 -418.600 1401.700 -418.600 1498.400 0.000 0.000 0.000 0.000
9 3 10 4 -251.200 1498.400 -418.600 1401.700 -334.900 1353.400 -251.200 1401.700 -251.200 1498.400 0.000 0.000 0.000 0.000
9 5 10 5 83.700 1401.700 83.700 1450.100 -83.700 1450.100 -83.700 1401.700 -0.000 1353.400 83.700 1401.700 0.000 0.000
9 7 10 4 418.600 1401.700 251.200 1498.400 251.200 1401.700 334.900 1353.400 418.600 1401.700 0.000 0.000 0.000 0.000
9 8 10 4 586.000 1401.700 418.600 1498.400 418.600 1401.700 502.300 1353.400 586.000 1401.700 0.000 0.000 0.000 0.000
10 2 0 6 334.900 96.700 316.000 85.800 316.000 -85.800 334.900 -96.700 418.600 -48.300 418.600 48.300 334.900 96.700
10 2 1 5 251.200 241.700 232.300 230.800 316.000 85.800 334.900 96.700 334.900 193.300 251.200 241.700 0.000 0.000
10 1 2 5 -83.700 338.400 -83.700 316.600 83.700 316.600 83.700 338.400 0.000 386.700 -83.700 338.400 0.000 0.000
10 2 2 6 83.700 338.400 83.700 316.600 232.300 230.800 251.200 241.700 251.200 338.400 167.400 386.700 83.700 338.400
10 10 3 4 1423.200 338.300 1423.200 531.700 1339.500 483.400 1339.500 386.700 1423.200 338.300 0.000 0.000 0.000 0.000
10 10 5 5 1255.800 628.400 1297.700 652.500 1213.900 797.500 1172.100 773.400 1172.100 676.700 1255.800 628.400 0.000 0.000
10 10 7 4 1172.100 966.700 1004.600 1063.400 1004.600 966.700 1088.400 918.400 1172.100 966.700 0.000 0.000 0.000 0.000
10 3 10 4 -251.200 1498.400 -418.600 1401.700 -334.900 1353.400 -251.200 1401.700 -251.200 1498.400 0.000 0.000 0.000 0.000
10 5 10 5 83.700 1401.700 83.700 1450.100 -83.700 1450.100 -83.700 1401.700 -0.000 1353.400 83.700 1401.700 0.000 0.000
10 7 10 4 418.600 1401.700 251.200 1498.400 251.200 1401.700 334.900 1353.400 418.600 1401.700 0.000 0.000 0.000 0.000
10 9 9 4 837.200 1256.700 669.800 1353.400 669.800 1256.700 753.500 1208.400 837.200 1256.700 0.000 0.000 0.000 0.000
10 9 0 4 1507.000 -96.700 1507.000 96.700 1423.200 48.300 1423.200 -48.300 1507.000 -96.700 0.000 0.000 0.000 0.000
11 2 0 6 334.900 96.700 316.000 85.800 316.000 -85.800 334.900 -96.700 418.600 -48.300 418.600 48.300 334.900 96.700
11 2 1 5 251.200 241.700 232.300 230.800 316.000 85.800 334.900 96.700 334.900 193.300 251.200 241.700 0.000 0.000
11 1 2 5 -83.700 338.400 -83.700 316.600 83.700 316.600 83.700 338.400 0.000 386.700 -83.700 338.400 0.000 0.000
11 2 2 6 83.700 338.400 83.700 316.600 232.300 230.800 251.200 241.700 251.200 338.400 167.400 386.700 83.700 338.400
11 9 0 4 1507.000 -96.700 1507.000 96.700 1423.200 48.300 1423.200 -48.300 1507.000 -96.700 0.000 0.000 0.000 0.000
11 10 2 4 1507.000 193.300 1507.000 386.700 1423.200 338.400 1423.200 241.700 1507.000 193.300 0.000 0.000 0.000 0.000
11 10 3 4 1423.200 338.300 1423.200 531.700 1339.500 483.400 1339.500 386.700 1423.200 338.300 0.000 0.000 0.000 0.000
11 10 5 5 1255.800 628.400 1297.700 652.500 1213.900 797.500 1172.100 773.400 1172.100 676.700 1255.800 628.400 0.000 0.000
11 10 7 4 1172.100 966.700 1004.600 1063.400 1004.600 966.700 1088.400 918.400 1172.100 966.700 0.000 0.000 0.000 0.000
11 10 8 4 1088.400 1111.700 920.900 1208.400 920.900 1111.700 1004.600 1063.400 1088.400 1111.700 0.000 0.000 0.000 0.000
11 9 9 4 837.200 1256.700 669.800 1353.400 669.800 1256.700 753.500 1208.400 837.200 1256.700 0.000 0.000 0.000 0.000
11 2 10 4 -418.600 1498.400 -586.000 1401.700 -502.300 1353.400 -418.600 1401.700 -418.600 1498.400 0.000 0.000 0.000 0.000
11 3 10 4 -251.200 1498.400 -418.600 1401.700 -334.900 1353.400 -251.200 1401.700 -251.200 1498.400 0.000 0.000 0.000 0.000
11 5 10 5 83.700 1401.700 83.700 1450.100 -83.700 1450.100 -83.700 1401.700 -0.000 1353.400 83.700 1401.700 0.000 0.000
11 7 10 4 418.600 1401.700 251.200 1498.400 251.200 1401.700 334.900 1353.400 418.600 1401.700 0.000 0.000 0.000 0.000
11 8 10 4 586.000 1401.700 418.600 1498.400 418.600 1401.700 502.300 1353.400 586.000 1401.700 0.000 0.000 0.000 0.000
12 2 0 6 334.900 96.700 316.000 85.800 316.000 -85.800 334.900 -96.700 418.600 -48.300 418.600 48.300 334.900 96.700
12 2 1 5 251.200 241.700 232.300 230.800 316.000 85.800 334.900 96.700 334.900 193.300 251.200 241.700 0.000 0.000
12 1 2 5 -83.700 338.400 -83.700 316.600 83.700 316.600 83.700 338.400 0.000 386.700 -83.700 338.400 0.000 0.000
12 2 2 6 83.700 338.400 83.700 316.600 232.300 230.800 251.200 241.700 251.200 338.400 167.400 386.700 83.700 338.400
12 9 0 4 1507.000 -96.700 1507.000 96.700 1423.200 48.300 1423.200 -48.300 1507.000 -96.700 0.000 0.000 0.000 0.000
12 10 3 4 1423.200 338.400 1423.200 531.700 1339.500 483.400 1339.500 386.700 1423.200 338.400 0.000 0.000 0.000 0.000
12 10 5 5 1255.800 628.400 1297.700 652.500 1213.900 797.500 1172.100 773.400 1172.100 676.700 1255.800 628.400 0.000 0.000
12 10 7 4 1172.100 966.700 1004.600 1063.400 1004.600 966.700 1088.400 918.400 1172.100 966.700 0.000 0.000 0.000 0.000
12 9 9 4 837.200 1256.700 669.800 1353.400 669.800 1256.700 753.500 1208.400 837.200 1256.700 0.000 0.000 0.000 0.000
12 3 10 4 -251.200 1498.400 -418.600 1401.700 -334.900 1353.400 -251.200 1401.700 -251.200 1498.400 0.000 0.000 0.000 0.000
12 5 10 5 83.700 1401.700 83.700 1450.100 -83.700 1450.100 -83.700 1401.700 -0.000 1353.400 83.700 1401.700 0.000 0.000
12 7 10 4 418.600 1401.700 251.200 1498.400 251.200 1401.700 334.900 1353.400 418.600 1401.700 0.000 0.000 0.000 0.000
13 2 0 6 334.900 96.700 316.000 85.800 316.000 -85.800 334.900 -96.700 418.600 -48.300 418.600 48.300 334.900 96.700
13 2 1 5 251.200 241.700 232.300 230.800 316.000 85.800 334.900 96.700 334.900 193.300 251.200 241.700 0.000 0.000
13 1 2 5 -83.700 338.400 -83.700 316.600 83.700 316.600 83.700 338.400 0.000 386.700 -83.700 338.400 0.000 0.000
13 2 2 6 83.700 338.400 83.700 316.600 232.300 230.800 251.200 241.700 251.200 338.400 167.400 386.700 83.700 338.400
13 9 0 4 1507.000 -96.700 1507.000 96.700 1423.200 48.300 1423.200 -48.300 1507.000 -96.700 0.000 0.000 0.000 0.000
13 10 2 4 1507.000 193.300 1507.000 386.700 1423.200 338.400 1423.200 241.700 1507.000 193.300 0.000 0.000 0.000 0.000
13 10 3 4 1423.200 338.300 1423.200 531.700 1339.500 483.400 1339.500 386.700 1423.200 338.300 0.000 0.000 0.000 0.000
13 10 5 5 1255.800 628.400 1297.700 652.500 1213.900 797.500 1172.100 773.400 1172.100 676.700 1255.800 628.400 0.000 0.000
13 10 7 4 1172.100 966.700 1004.600 1063.400 1004.600 966.700 1088.400 918.400 1172.100 966.700 0.000 0.000 0.000 0.000
13 10 8 4 1088.400 1111.700 920.900 1208.400 920.900 1111.700 1004.600 1063.400 1088.400 1111.700 0.000 0.000 0.000 0.000
13 9 9 4 837.200 1256.700 669.800 1353.400 669.800 1256.700 753.500 1208.400 837.200 1256.700 0.000 0.000 0.000 0.000
13 2 10 4 -418.600 1498.400 -586.000 1401.700 -502.300 1353.400 -418.600 1401.700 -418.600 1498.400 0.000 0.000 0.000 0.000
13 3 10 4 -251.200 1498.400 -418.600 1401.700 -334.900 1353.400 -251.200 1401.700 -251.200 1498.400 0.000 0.000 0.000 0.000
13 5 10 5 83.700 1401.700 83.700 1450.100 -83.700 1450.100 -83.700 1401.700 -0.000 1353.400 83.700 1401.700 0.000 0.000
13 7 10 4 418.600 1401.700 251.200 1498.400 251.200 1401.700 334.900 1353.400 418.600 1401.700 0.000 0.000 0.000 0.000
13 8 10 4 586.000 1401.700 418.600 1498.400 418.600 1401.700 502.300 1353.400 586.000 1401.700 0.000 0.000 0.000 0.000
14 2 0 6 334.900 96.700 316.000 85.800 316.000 -85.800 334.900 -96.700 418.600 -48.300 418.600 48.300 334.900 96.700
14 2 1 5 251.200 241.700 232.300 230.800 316.000 85.800 334.900 96.700 334.900 193.300 251.200 241.700 0.000 0.000
14 1 2 5 -83.700 338.400 -83.700 316.600 83.700 316.600 83.700 338.400 0.000 386.700 -83.700 338.400 0.000 0.000
14 2 2 6 83.700 338.400 83.700 316.600 232.300 230.800 251.200 241.700 251.200 338.400 167.400 386.700 83.700 338.400
14 9 0 4 1507.000 -96.700 1507.000 96.700 1423.200 48.300 1423.200 -48.300 1507.000 -96.700 0.000 0.000 0.000 0.000
14 10 3 4 1423.200 338.300 1423.200 531.700 1339.500 483.400 1339.500 386.700 1423.200 338.300 0.000 0.000 0.000 0.000
14 10 5 5 1255.800 628.400 1297.700 652.500 1213.900 797.500 1172.100 773.400 1172.100 676.700 1255.800 628.400 0.000 0.000
14 10 7 4 1172.100 966.700 1004.600 1063.400 1004.600 966.700 1088.400 918.400 1172.100 966.700 0.000 0.000 0.000 0.000
14 9 9 4 837.200 1256.700 669.800 1353.400 669.800 1256.700 753.500 1208.400 837.200 1256.700 0.000 0.000 0.000 0.000
14 3 10 4 -251.200 1498.400 -418.600 1401.700 -334.900 1353.400 -251.200 1401.700 -251.200 1498.400 0.000 0.000 0.000 0.000
14 5 10 5 83.700 1401.700 83.700 1450.100 -83.700 1450.100 -83.700 1401.700 -0.000 1353.400 83.700 1401.700 0.000 0.000
14 7 10 4 418.600 1401.700 251.200 1498.400 251.200 1401.700 334.900 1353.400 418.600 1401.700 0.000 0.000 0.000 0.000
14 8 10 4 586.000 1401.700 418.600 1498.400 418.600 1401.700 502.300 1353.400 586.000 1401.700 0.000 0.000 0.000 0.000
14 10 2 4 1507.000 193.300 1507.000 386.700 1423.200 338.400 1423.200 241.700 1507.000 193.300 0.000 0.000 0.000 0.000
14 10 8 4 1088.400 1111.700 920.900 1208.400 920.900 1111.700 1004.600 1063.400 1088.400 1111.700 0.000 0.000 0.000 0.000
14 2 10 4 -418.600 1498.400 -586.000 1401.700 -502.300 1353.400 -418.600 1401.700 -418.600 1498.400 0.000 0.000 0.000 0.000
15 2 0 6 334.900 96.700 316.000 85.800 316.000 -85.800 334.900 -96.700 418.600 -48.300 418.600 48.300 334.900 96.700
15 2 1 5 251.200 241.700 232.300 230.800 316.000 85.800 334.900 96.700 334.900 193.300 251.200 241.700 0.000 0.000
15 1 2 5 -83.700 338.400 -83.700 316.600 83.700 316.600 83.700 338.400 0.000 386.700 -83.700 338.400 0.000 0.000
15 2 2 6 83.700 338.400 83.700 316.600 232.300 230.800 251.200 241.700 251.200 338.400 167.400 386.700 83.700 338.400
15 9 0 4 1507.000 -96.700 1507.000 96.700 1423.200 48.300 1423.200 -48.300 1507.000 -96.700 0.000 0.000 0.000 0.000
15 10 2 4 1507.000 193.300 1507.000 386.700 1423.200 338.400 1423.200 241.700 1507.000 193.300 0.000 0.000 0.000 0.000
15 10 5 5 1255.800 628.400 1297.700 652.500 1213.900 797.500 1172.100 773.400 1172.100 676.700 1255.800 628.400 0.000 0.000
15 10 8 4 1088.400 1111.700 920.900 1208.400 920.900 1111.700 1004.600 1063.400 1088.400 1111.700 0.000 0.000 0.000 0.000
15 9 9 4 837.200 1256.700 669.800 1353.400 669.800 1256.700 753.500 1208.400 837.200 1256.700 0.000 0.000 0.000 0.000
15 2 10 4 -418.600 1498.400 -586.000 1401.700 -502.300 1353.400 -418.600 1401.700 -418.600 1498.400 0.000 0.000 0.000 0.000
15 5 10 5 83.700 1401.700 83.700 1450.100 -83.700 1450.100 -83.700 1401.700 -0.000 1353.400 83.700 1401.700 0.000 0.000
15 8 10 4 586.000 1401.700 418.600 1498.400 418.600 1401.700 502.300 1353.400 586.000 1401.700 0.000 0.000 0.000 0.000
16 2 0 6 334.900 96.700 316.000 85.800 316.000 -85.800 334.900 -96.700 418.600 -48.300 418.600 48.300 334.900 96.700
16 2 1 5 251.200 241.700 232.300 230.800 316.000 85.800 334.900 96.700 334.900 193.300 251.200 241.700 0.000 0.000
16 1 2 5 -83.700 338.400 -83.700 316.600 83.700 316.600 83.700 338.400 0.000 386.700 -83.700 338.400 0.000 0.000
16 2 2 6 83.700 338.400 83.700 316.600 232.300 230.800 251.200 241.700 251.200 338.400 167.400 386.700 83.700 338.400
16 9 0 4 1507.000 -96.700 1507.000 96.700 1423.200 48.300 1423.200 -48.300 1507.000 -96.700 0.000 0.000 0.000 0.000
16 10 2 4 1507.000 193.300 1507.000 386.700 1423.200 338.400 1423.200 241.700 1507.000 193.300 0.000 0.000 0.000 0.000
16 10 5 5 1255.800 628.400 1297.700 652.500 1213.900 797.500 1172.100 773.400 1172.100 676.700 1255.800 628.400 0.000 0.000
16 10 8 4 1088.400 1111.700 920.900 1208.400 920.900 1111.700 1004.600 1063.400 1088.400 1111.700 0.000 0.000 0.000 0.000
16 9 9 4 837.200 1256.700 669.800 1353.400 669.800 1256.700 753.500 1208.400 837.200 1256.700 0.000 0.000 0.000 0.000
16 2 10 4 -418.600 1498.400 -586.000 1401.700 -502.300 1353.400 -418.600 1401.700 -418.600 1498.400 0.000 0.000 0.000 0.000
16 5 10 5 83.700 1401.700 83.700 1450.100 -83.700 1450.100 -83.700 1401.700 -0.000 1353.400 83.700 1401.700 0.000 0.000
16 8 10 4 586.000 1401.700 418.600 1498.400 418.600 1401.700 502.300 1353.400 586.000 1401.700 0.000 0.000 0.000 0.000
17 2 0 6 334.900 96.700 316.000 85.800 316.000 -85.800 334.900 -96.700 418.600 -48.300 418.600 48.300 334.900 96.700
17 2 1 5 251.200 241.700 232.300 230.800 316.000 85.800 334.900 96.700 334.900 193.300 251.200 241.700 0.000 0.000
17 1 2 5 -83.700 338.400 -83.700 316.600 83.700 316.600 83.700 338.400 0.000 386.700 -83.700 338.400 0.000 0.000
17 2 2 6 83.700 338.400 83.700 316.600 232.300 230.800 251.200 241.700 251.200 338.400 167.400 386.700 83.700 338.400
17 9 0 4 1507.000 -96.700 1507.000 96.700 1423.200 48.300 1423.200 -48.300 1507.000 -96.700 0.000 0.000 0.000 0.000
17 10 2 4 1507.000 193.300 1507.000 386.700 1423.200 338.400 1423.200 241.700 1507.000 193.300 0.000 0.000 0.000 0.000
17 10 5 5 1255.800 628.400 1297.700 652.500 1213.900 797.500 1172.100 773.400 1172.100 676.700 1255.800 628.400 0.000 0.000
17 10 8 4 1088.400 1111.700 920.900 1208.400 920.900 1111.700 1004.600 1063.400 1088.400 1111.700 0.000 0.000 0.000 0.000
17 9 9 4 837.200 1256.700 669.800 1353.400 669.800 1256.700 753.500 1208.400 837.200 1256.700 0.000 0.000 0.000 0.000
17 2 10 4 -418.600 1498.400 -586.000 1401.700 -502.300 1353.400 -418.600 1401.700 -418.600 1498.400 0.000 0.000 0.000 0.000
17 5 10 5 83.700 1401.700 83.700 1450.100 -83.700 1450.100 -83.700 1401.700 -0.000 1353.400 83.700 1401.700 0.000 0.000
17 8 10 4 586.000 1401.700 418.600 1498.400 418.600 1401.700 502.300 1353.400 586.000 1401.700 0.000 0.000 0.000 0.000
18 2 0 6 334.900 96.700 316.000 85.800 316.000 -85.800 334.900 -96.700 418.600 -48.300 418.600 48.300 334.900 96.700
18 2 1 5 251.200 241.700 232.300 230.800 316.000 85.800 334.900 96.700 334.900 193.300 251.200 241.700 0.000 0.000
18 1 2 5 -83.700 338.400 -83.700 316.600 83.700 316.600 83.700 338.400 0.000 386.700 -83.700 338.400 0.000 0.000
18 2 2 6 83.700 338.400 83.700 316.600 232.300 230.800 251.200 241.700 251.200 338.400 167.400 386.700 83.700 338.400
18 9 0 4 1507.000 -96.700 1507.000 96.700 1423.200 48.300 1423.200 -48.300 1507.000 -96.700 0.000 0.000 0.000 0.000
18 10 2 4 1507.000 193.300 1507.000 386.700 1423.200 338.400 1423.200 241.700 1507.000 193.300 0.000 0.000 0.000 0.000
18 10 5 5 1255.800 628.400 1297.700 652.500 1213.900 797.500 1172.100 773.400 1172.100 676.700 1255.800 628.400 0.000 0.000
18 10 8 4 1088.400 1111.700 920.900 1208.400 920.900 1111.700 1004.600 1063.400 1088.400 1111.700 0.000 0.000 0.000 0.000
18 9 9 4 837.200 1256.700 669.800 1353.400 669.800 1256.700 753.500 1208.400 837.200 1256.700 0.000 0.000 0.000 0.000
18 2 10 4 -418.600 1498.400 -586.000 1401.700 -502.300 1353.400 -418.600 1401.700 -418.600 1498.400 0.000 0.000 0.000 0.000
18 5 10 5 83.700 1401.700 83.700 1450.100 -83.700 1450.100 -83.700 1401.700 -0.000 1353.400 83.700 1401.700 0.000 0.000
18 8 10 4 586.000 1401.700 418.600 1498.400 418.600 1401.700 502.300 1353.400 586.000 1401.700 0.000 0.000 0.000 0.000
19 2 0 6 334.900 96.700 316.000 85.800 316.000 -85.800 334.900 -96.700 418.600 -48.300 418.600 48.300 334.900 96.700
19 2 1 5 251.200 241.700 232.300 230.800 316.000 85.800 334.900 96.700 334.900 193.300 251.200 241.700 0.000 0.000
19 1 2 5 -83.700 338.400 -83.700 316.600 83.700 316.600 83.700 338.400 0.000 386.700 -83.700 338.400 0.000 0.000
19 2 2 6 83.700 338.400 83.700 316.600 232.300 230.800 251.200 241.700 251.200 338.400 167.400 386.700 83.700 338.400
19 9 0 4 1507.000 -96.700 1507.000 96.700 1423.200 48.300 1423.200 -48.300 1507.000 -96.700 0.000 0.000 0.000 0.000
19 10 2 4 1507.000 193.300 1507.000 386.700 1423.200 338.400 1423.200 241.700 1507.000 193.300 0.000 0.000 0.000 0.000
19 10 5 5 1255.800 628.400 1297.700 652.500 1213.900 797.500 1172.100 773.400 1172.100 676.700 1255.800 628.400 0.000 0.000
19 10 8 4 1088.400 1111.700 920.900 1208.400 920.900 1111.700 1004.600 1063.400 1088.400 1111.700 0.000 0.000 0.000 0.000
19 9 9 4 837.200 1256.700 669.800 1353.400 669.800 1256.700 753.500 1208.400 837.200 1256.700 0.000 0.000 0.000 0.000
19 2 10 4 -418.600 1498.400 -586.000 1401.700 -502.300 1353.400 -418.600 1401.700 -418.600 1498.400 0.000 0.000 0.000 0.000
19 5 10 5 83.700 1401.700 83.700 1450.100 -83.700 1450.100 -83.700 1401.700 -0.000 1353.400 83.700 1401.700 0.000 0.000
19 8 10 4 586.000 1401.700 418.600 1498.400 418.600 1401.700 502.300 1353.400 586.000 1401.700 0.000 0.000 0.000 0.000
20 2 0 6 334.900 96.700 316.000 85.800 316.000 -85.800 334.900 -96.700 418.600 -48.300 418.600 48.300 334.900 96.700
20 2 1 5 251.200 241.700 232.300 230.800 316.000 85.800 334.900 96.700 334.900 193.300 251.200 241.700 0.000 0.000
20 1 2 5 -83.700 338.400 -83.700 316.600 83.700 316.600 83.700 338.400 0.000 386.700 -83.700 338.400 0.000 0.000
20 2 2 6 83.700 338.400 83.700 316.600 232.300 230.800 251.200 241.700 251.200 338.400 167.400 386.700 83.700 338.400
20 9 0 4 1507.000 -96.700 1507.000 96.700 1423.200 48.300 1423.200 -48.300 1507.000 -96.700 0.000 0.000 0.000 0.000
20 10 2 4 1507.000 193.300 1507.000 386.700 1423.200 338.400 1423.200 241.700 1507.000 193.300 0.000 0.000 0.000 0.000
20 10 5 5 1255.800 628.400 1297.700 652.500 1213.900 797.500 1172.100 773.400 1172.100 676.700 1255.800 628.400 0.000 0.000
20 10 8 4 1088.400 1111.700 920.900 1208.400 920.900 1111.700 1004.600 1063.400 1088.400 1111.700 0.000 0.000 0.000 0.000
20 9 9 4 837.200 1256.700 669.800 1353.400 669.800 1256.700 753.500 1208.400 837.200 1256.700 0.000 0.000 0.000 0.000
20 2 10 4 -418.600 1498.400 -586.000 1401.700 -502.300 1353.400 -418.600 1401.700 -418.600 1498.400 0.000 0.000 0.000 0.000
20 5 10 5 83.700 1401.700 83.700 1450.100 -83.700 1450.100 -83.700 1401.700 -0.000 1353.400 83.700 1401.700 0.000 0.000
20 8 10 4 586.000 1401.700 418.600 1498.400 418.600 1401.700 502.300 1353.400 586.000 1401.700 0.000 0.000 0.000 0.000
21 2 0 6 334.900 96.700 316.000 85.800 316.000 -85.800 334.900 -96.700 418.600 -48.300 418.600 48.300 334.900 96.700
21 2 1 5 251.200 241.700 232.300 230.800 316.000 85.800 334.900 96.700 334.900 193.300 251.200 241.700 0.000 0.000
21 1 2 5 -83.700 338.400 -83.700 316.600 83.700 316.600 83.700 338.400 0.000 386.700 -83.700 338.400 0.000 0.000
21 2 2 6 83.700 338.400 83.700 316.600 232.300 230.800 251.200 241.700 251.200 338.400 167.400 386.700 83.700 338.400
21 9 0 4 1507.000 -96.700 1507.000 96.700 1423.200 48.300 1423.200 -48.300 1507.000 -96.700 0.000 0.000 0.000 0.000
21 10 2 4 1507.000 193.300 1507.000 386.700 1423.200 338.400 1423.200 241.700 1507.000 193.300 0.000 0.000 0.000 0.000
21 10 5 5 1255.800 628.400 1297.700 652.500 1213.900 797.500 1172.100 773.400 1172.100 676.700 1255.800 628.400 0.000 0.000
21 10 8 4 1088.400 1111.700 920.900 1208.400 920.900 1111.700 1004.600 1063.400 1088.400 1111.700 0.000 0.000 0.000 0.000
21 9 9 4 837.200 1256.700 669.800 1353.400 669.800 1256.700 753.500 1208.400 837.200 1256.700 0.000 0.000 0.000 0.000
21 2 10 4 -418.600 1498.400 -586.000 1401.700 -502.300 1353.400 -418.600 1401.700 -418.600 1498.400 0.000 0.000 0.000 0.000
21 5 10 5 83.700 1401.700 83.700 1450.100 -83.700 1450.100 -83.700 1401.700 -0.000 1353.400 83.700 1401.700 0.000 0.000
21 8 10 4 586.000 1401.700 418.600 1498.400 418.600 1401.700 502.300 1353.400 586.000 1401.700 0.000 0.000 0.000 0.000
22 2 0 6 334.900 96.700 316.000 85.800 316.000 -85.800 334.900 -96.700 418.600 -48.300 418.600 48.300 334.900 96.700
22 2 1 5 251.200 241.700 232.300 230.800 316.000 85.800 334.900 96.700 334.900 193.300 251.200 241.700 0.000 0.000
22 1 2 5 -83.700 338.400 -83.700 316.600 83.700 316.600 83.700 338.400 0.000 386.700 -83.700 338.400 0.000 0.000
22 2 2 6 83.700 338.400 83.700 316.600 232.300 230.800 251.200 241.700 251.200 338.400 167.400 386.700 83.700 338.400
22 9 0 4 1507.000 -96.700 1507.000 96.700 1423.200 48.300 1423.200 -48.300 1507.000 -96.700 0.000 0.000 0.000 0.000
22 10 2 4 1507.000 193.300 1507.000 386.700 1423.200 338.400 1423.200 241.700 1507.000 193.300 0.000 0.000 0.000 0.000
22 10 5 5 1255.800 628.400 1297.700 652.500 1213.900 797.500 1172.100 773.400 1172.100 676.700 1255.800 628.400 0.000 0.000
22 10 8 4 1088.400 1111.700 920.900 1208.400 920.900 1111.700 1004.600 1063.400 1088.400 1111.700 0.000 0.000 0.000 0.000
22 9 9 4 837.200 1256.700 669.800 1353.400 669.800 1256.700 753.500 1208.400 837.200 1256.700 0.000 0.000 0.000 0.000
22 2 10 4 -418.600 1498.400 -586.000 1401.700 -502.300 1353.400 -418.600 1401.700 -418.600 1498.400 0.000 0.000 0.000 0.000
22 5 10 5 83.700 1401.700 83.700 1450.100 -83.700 1450.100 -83.700 1401.700 -0.000 1353.400 83.700 1401.700 0.000 0.000
22 8 10 4 586.000 1401.700 418.600 1498.400 418.600 1401.700 502.300 1353.400 586.000 1401.700 0.000 0.000 0.000 0.000
23 2 0 6 334.900 96.700 316.000 85.800 316.000 -85.800 334.900 -96.700 418.600 -48.300 418.600 48.300 334.900 96.700
23 2 1 5 251.200 241.700 232.300 230.800 316.000 85.800 334.900 96.700 334.900 193.300 251.200 241.700 0.000 0.000
23 1 2 5 -83.700 338.400 -83.700 316.600 83.700 316.600 83.700 338.400 0.000 386.700 -83.700 338.400 0.000 0.000
23 2 2 6 83.700 338.400 83.700 316.600 232.300 230.800 251.200 241.700 251.200 338.400 167.400 386.700 83.700 338.400
23 9 0 4 1507.000 -96.700 1507.000 96.700 1423.200 48.300 1423.200 -48.300 1507.000 -96.700 0.000 0.000 0.000 0.000
23 10 1 4 1590.700 48.300 1590.700 241.700 1507.000 193.300 1507.000 96.700 1590.700 48.300 0.000 0.000 0.000 0.000
23 10 5 5 1255.800 628.400 1297.700 652.500 1213.900 797.500 1172.100 773.400 1172.100 676.700 1255.800 628.400 0.000 0.000
23 9 9 4 837.200 1256.700 669.800 1353.400 669.800 1256.700 753.500 1208.400 837.200 1256.700 0.000 0.000 0.000 0.000
23 5 10 5 83.700 1401.700 83.700 1450.100 -83.700 1450.100 -83.700 1401.700 -0.000 1353.400 83.700 1401.700 0.000 0.000
23 9 10 4 753.500 1401.700 586.000 1498.400 586.000 1401.700 669.800 1353.400 753.500 1401.700 0.000 0.000 0.000 0.000
24 2 0 6 334.900 96.700 316.000 85.800 316.000 -85.800 334.900 -96.700 418.600 -48.300 418.600 48.300 334.900 96.700
24 2 1 5 251.200 241.700 232.300 230.800 316.000 85.800 334.900 96.700 334.900 193.300 251.200 241.700 0.000 0.000
24 1 2 5 -83.700 338.400 -83.700 316.600 83.700 316.600 83.700 338.400 0.000 386.700 -83.700 338.400 0.000 0.000
24 2 2 6 83.700 338.400 83.700 316.600 232.300 230.800 251.200 241.700 251.200 338.400 167.400 386.700 83.700 338.400
24 9 0 4 1507.000 -96.700 1507.000 96.700 1423.200 48.300 1423.200 -48.300 1507.000 -96.700 0.000 0.000 0.000 0.000
24 10 1 4 1590.700 48.300 1590.700 241.700 1507.000 193.300 1507.000 96.700 1590.700 48.300 0.000 0.000 0.000 0.000
24 9 9 4 837.200 1256.700 669.800 1353.400 669.800 1256.700 753.500 1208.400 837.200 1256.700 0.000 0.000 0.000 0.000
24 9 10 4 753.500 1401.700 586.000 1498.400 586.000 1401.700 669.800 1353.400 753.500 1401.700 0.000 0.000 0.000 0.000
25 2 0 6 334.900 96.700 316.000 85.800 316.000 -85.800 334.900 -96.700 418.600 -48.300 418.600 48.300 334.900 96.700
25 2 1 5 251.200 241.700 232.300 230.800 316.000 85.800 334.900 96.700 334.900 193.300 251.200 241.700 0.000 0.000
25 1 2 5 -83.700 338.400 -83.700 316.600 83.700 316.600 83.700 338.400 0.000 386.700 -83.700 338.400 0.000 0.000
25 2 2 6 83.700 338.400 83.700 316.600 232.300 230.800 251.200 241.700 251.200 338.400 167.400 386.700 83.700 338.400
25 9 0 4 1507.000 -96.700 1507.000 96.700 1423.200 48.300 1423.200 -48.300 1507.000 -96.700 0.000 0.000 0.000 0.000
25 10 1 4 1590.700 48.300 1590.700 241.700 1507.000 193.300 1507.000 96.700 1590.700 48.300 0.000 0.000 0.000 0.000
25 11 4 5 1507.000 483.400 1548.800 507.500 1465.100 652.500 1423.200 628.400 1423.200 531.700 1507.000 483.400 0.000 0.000
25 11 7 5 1255.800 918.400 1297.700 942.600 1213.900 1087.600 1172.100 1063.400 1172.100 966.700 1255.800 918.400 0.000 0.000
25 9 9 4 837.200 1256.700 669.800 1353.400 669.800 1256.700 753.500 1208.400 837.200 1256.700 0.000 0.000 0.000 0.000
25 9 10 4 753.500 1401.700 586.000 1498.400 586.000 1401.700 669.800 1353.400 753.500 1401.700 0.000 0.000 0.000 0.000
25 4 11 5 -167.400 1546.800 -167.400 1595.100 -334.900 1595.100 -334.900 1546.800 -251.200 1498.400 -167.400 1546.800 0.000 0.000
25 7 11 5 334.900 1546.800 334.900 1595.100 167.400 1595.100 167.400 1546.800 251.200 1498.400 334.900 1546.800 0.000 0.000
26 2 0 6 334.900 96.700 316.000 85.800 316.000 -85.800 334.900 -96.700 418.600 -48.300 418.600 48.300 334.900 96.700
26 2 1 5 251.200 241.700 232.300 230.800 316.000 85.800 334.900 96.700 334.900 193.300 251.200 241.700 0.000 0.000
26 1 2 5 -83.700 338.400 -83.700 316.600 83.700 316.600 83.700 338.400 0.000 386.700 -83.700 338.400 0.000 0.000
26 2 2 6 83.700 338.400 83.700 316.600 232.300 230.800 251.200 241.700 251.200 338.400 167.400 386.700 83.700 338.400
26 10 1 4 1590.700 48.300 1590.700 241.700 1507.000 193.300 1507.000 96.700 1590.700 48.300 0.000 0.000 0.000 0.000
26 10 9 4 1004.600 1256.700 837.200 1353.400 837.200 1256.700 920.900 1208.400 1004.600 1256.700 0.000 0.000 0.000 0.000
26 1 10 4 -586.000 1498.400 -753.500 1401.700 -669.800 1353.400 -586.000 1401.700 -586.000 1498.400 0.000 0.000 0.000 0.000
26 9 10 4 753.500 1401.700 586.000 1498.400 586.000 1401.700 669.800 1353.400 753.500 1401.700 0.000 0.000 0.000 0.000
27 2 0 4 353.300 86.100 353.300 -86.100 418.600 -48.300 418.600 48.300 353.300 86.100 0.000 0.000 0.000 0.000
27 2 2 4 102.100 349.000 251.200 262.900 251.200 338.400 167.400 386.700 102.100 349.000 0.000 0.000 0.000 0.000
27 10 1 4 1590.700 48.300 1590.700 241.700 1507.000 193.300 1507.000 96.700 1590.700 48.300 0.000 0.000 0.000 0.000
27 11 4 4 1507.000 483.400 1507.000 676.700 1423.200 628.400 1423.200 531.700 1507.000 483.400 0.000 0.000 0.000 0.000
27 11 5 4 1507.000 676.700 1339.500 773.400 1339.500 676.700 1423.200 628.400 1507.000 676.700 0.000 0.000 0.000 0.000
27 11 6 4 1339.500 773.400 1339.500 966.700 1255.800 918.400 1255.800 821.700 1339.500 773.400 0.000 0.000 0.000 0.000
27 11 7 4 1339.500 966.700 1172.100 1063.400 1172.100 966.700 1255.800 918.400 1339.500 966.700 0.000 0.000 0.000 0.000
27 9 10 4 753.500 1401.700 586.000 1498.400 586.000 1401.700 669.800 1353.400 753.500 1401.700 0.000 0.000 0.000 0.000
27 4 11 4 -167.400 1643.400 -334.900 1546.800 -251.200 1498.400 -167.400 1546.800 -167.400 1643.400 0.000 0.000 0.000 0.000
27 5 11 4 0.000 1546.800 -167.400 1643.400 -167.400 1546.800 -83.700 1498.400 0.000 1546.800 0.000 0.000 0.000 0.000
27 6 11 4 167.400 1643.400 -0.000 1546.800 83.700 1498.400 167.400 1546.800 167.400 1643.400 0.000 0.000 0.000 0.000
27 7 11 4 334.900 1546.800 167.400 1643.400 167.400 1546.800 251.200 1498.400 334.900 1546.800 0.000 0.000 0.000 0.000
28 2 0 4 353.278 86.096 353.293 -86.079 418.592 -48.377 418.663 48.346 353.278 86.096 0.000 0.000 0.000 0.000
28 2 2 4 102.085 349.017 251.215 262.917 251.129 338.368 167.471 386.668 102.085 349.017 0.000 0.000 0.000 0.000
28 10 1 4 1590.679 48.336 1590.634 241.659 1506.955 193.323 1506.934 96.686 1590.679 48.336 0.000 0.000 0.000 0.000
28 11 3 4 1590.705 338.382 1590.660 531.705 1506.981 483.368 1506.960 386.732 1590.705 338.382 0.000 0.000 0.000 0.000
28 11 4 4 1506.981 483.368 1506.937 676.691 1423.258 628.355 1423.237 531.718 1506.981 483.368 0.000 0.000 0.000 0.000
28 11 5 4 1506.937 676.691 1339.534 773.341 1339.513 676.705 1423.258 628.355 1506.937 676.691 0.000 0.000 0.000 0.000
28 11 6 4 1339.534 773.341 1339.539 966.750 1255.810 918.327 1255.789 821.691 1339.534 773.341 0.000 0.000 0.000 0.000
28 11 7 4 1339.539 966.750 1172.137 1063.400 1172.066 966.677 1255.810 918.327 1339.539 966.750 0.000 0.000 0.000 0.000
28 11 8 4 1255.816 1111.737 1088.413 1208.387 1088.392 1111.750 1172.137 1063.400 1255.816 1111.737 0.000 0.000 0.000 0.000
28 10 9 4 1004.603 1353.423 837.245 1256.750 920.903 1208.450 1004.668 1256.737 1004.603 1353.423 0.000 0.000 0.000 0.000
28 1 10 4 -669.779 1546.709 -669.734 1353.386 -586.055 1401.723 -586.034 1498.359 -669.779 1546.709 0.000 0.000 0.000 0.000
28 9 10 4 753.521 1401.737 586.032 1498.437 586.097 1401.750 669.755 1353.450 753.521 1401.737 0.000 0.000 0.000 0.000
28 3 11 4 -334.860 1643.405 -502.305 1546.782 -418.560 1498.432 -334.881 1546.768 -334.860 1643.405 0.000 0.000 0.000 0.000
28 4 11 4 -167.437 1643.391 -334.881 1546.768 -251.137 1498.418 -167.458 1546.755 -167.437 1643.391 0.000 0.000 0.000 0.000
28 5 11 4 -0.034 1546.741 -167.437 1643.391 -167.458 1546.755 -83.713 1498.405 -0.034 1546.741 0.000 0.000 0.000 0.000
28 6 11 4 167.461 1643.450 -0.034 1546.741 83.711 1498.391 167.390 1546.727 167.461 1643.450 0.000 0.000 0.000 0.000
28 7 11 4 334.863 1546.800 167.461 1643.450 167.390 1546.727 251.134 1498.377 334.863 1546.800 0.000 0.000 0.000 0.000
28 8 11 4 502.287 1546.787 334.884 1643.437 334.863 1546.800 418.608 1498.450 502.287 1546.787 0.000 0.000 0.000 0.000
29 9 0 4 1423.200 -48.300 1590.700 48.300 1507.000 96.700 1423.200 48.300 1423.200 -48.300 0.000 0.000 0.000 0.000
29 9 9 4 753.500 1208.400 753.500 1401.700 669.800 1353.400 669.800 1256.700 753.500 1208.400 0.000 0.000 0.000 0.000
29 2 0 4 353.300 86.100 353.300 -86.100 418.600 -48.300 418.600 48.300 353.300 86.100 0.000 0.000 0.000 0.000
29 2 2 4 102.100 349.000 251.200 262.900 251.200 338.400 167.400 386.700 102.100 349.000 0.000 0.000 0.000 0.000
29 11 3 4 1590.700 338.400 1590.700 531.700 1507.000 483.400 1507.000 386.700 1590.700 338.400 0.000 0.000 0.000 0.000
29 11 4 5 1507.000 483.400 1548.800 507.500 1465.100 652.500 1423.200 628.400 1423.200 531.700 1507.000 483.400 0.000 0.000
29 11 5 5 1423.200 628.400 1465.100 652.500 1381.400 797.500 1339.500 773.400 1339.500 676.700 1423.200 628.400 0.000 0.000
29 11 6 5 1339.500 773.400 1381.400 797.500 1297.700 942.600 1255.800 918.400 1255.800 821.700 1339.500 773.400 0.000 0.000
29 11 7 5 1255.800 918.400 1297.700 942.600 1213.900 1087.600 1172.100 1063.400 1172.100 966.700 1255.800 918.400 0.000 0.000
29 11 8 4 1255.800 1111.700 1088.400 1208.400 1088.400 1111.700 1172.100 1063.400 1255.800 1111.700 0.000 0.000 0.000 0.000
29 3 11 4 -334.900 1643.400 -502.300 1546.800 -418.600 1498.400 -334.900 1546.800 -334.900 1643.400 0.000 0.000 0.000 0.000
29 4 11 5 -167.400 1546.800 -167.400 1595.100 -334.900 1595.100 -334.900 1546.800 -251.200 1498.400 -167.400 1546.800 0.000 0.000
29 5 11 5 0.000 1546.800 0.000 1595.100 -167.400 1595.100 -167.400 1546.800 -83.700 1498.400 0.000 1546.800 0.000 0.000
29 6 11 5 167.400 1546.800 167.400 1595.100 -0.000 1595.100 -0.000 1546.800 83.700 1498.400 167.400 1546.800 0.000 0.000
29 7 11 5 334.900 1546.800 334.900 1595.100 167.400 1595.100 167.400 1546.800 251.200 1498.400 334.900 1546.800 0.000 0.000
29 8 11 4 502.300 1546.800 334.900 1643.400 334.900 1546.800 418.600 1498.400 502.300 1546.800 0.000 0.000 0.000 0.000
30 2 0 4 353.278 86.096 353.293 -86.079 418.592 -48.377 418.663 48.346 353.278 86.096 0.000 0.000 0.000 0.000
30 2 2 4 102.085 349.017 251.215 262.917 251.129 338.368 167.471 386.668 102.085 349.017 0.000 0.000 0.000 0.000
30 11 2 4 1674.379 193.309 1674.384 386.718 1590.705 338.382 1590.634 241.659 1674.379 193.309 0.000 0.000 0.000 0.000
30 11 3 4 1590.705 338.382 1590.660 531.705 1506.981 483.368 1506.960 386.732 1590.705 338.382 0.000 0.000 0.000 0.000
30 11 5 5 1423.258 628.355 1465.166 652.541 1381.355 797.577 1339.534 773.341 1339.513 676.705 1423.258 628.355 0.000 0.000
30 11 6 5 1339.534 773.341 1381.355 797.577 1297.632 942.564 1255.810 918.327 1255.789 821.691 1339.534 773.341 0.000 0.000
30 11 8 4 1255.816 1111.737 1088.413 1208.387 1088.392 1111.750 1172.137 1063.400 1255.816 1111.737 0.000 0.000 0.000 0.000
30 11 9 4 1172.092 1256.723 1004.603 1353.423 1004.668 1256.737 1088.413 1208.387 1172.092 1256.723 0.000 0.000 0.000 0.000
30 2 11 4 -502.284 1643.418 -669.779 1546.709 -586.034 1498.359 -502.305 1546.782 -502.284 1643.418 0.000 0.000 0.000 0.000
30 3 11 4 -334.860 1643.405 -502.305 1546.782 -418.560 1498.432 -334.881 1546.768 -334.860 1643.405 0.000 0.000 0.000 0.000
30 5 11 5 -0.034 1546.741 0.045 1595.077 -167.466 1595.141 -167.458 1546.755 -83.713 1498.405 -0.034 1546.741 0.000 0.000
30 6 11 5 167.390 1546.727 167.468 1595.064 0.045 1595.077 -0.034 1546.741 83.711 1498.391 167.390 1546.727 0.000 0.000
30 8 11 4 502.287 1546.787 334.884 1643.437 334.863 1546.800 418.608 1498.450 502.287 1546.787 0.000 0.000 0.000 0.000
30 9 11 4 669.797 1546.723 502.308 1643.423 502.287 1546.787 586.032 1498.437 669.797 1546.723 0.000 0.000 0.000 0.000
31 2 0 4 353.300 86.100 353.300 -86.100 418.600 -48.300 418.600 48.300 353.300 86.100 0.000 0.000 0.000 0.000
31 2 2 4 102.100 349.000 251.200 262.900 251.200 338.400 167.400 386.700 102.100 349.000 0.000 0.000 0.000 0.000
31 11 2 4 1674.400 193.300 1674.400 386.700 1590.700 338.400 1590.700 241.700 1674.400 193.300 0.000 0.000 0.000 0.000
31 11 5 5 1423.200 628.400 1465.100 652.500 1381.400 797.500 1339.500 773.400 1339.500 676.700 1423.200 628.400 0.000 0.000
31 11 6 5 1339.500 773.400 1381.400 797.500 1297.700 942.600 1255.800 918.400 1255.800 821.700 1339.500 773.400 0.000 0.000
31 11 9 4 1172.100 1256.700 1004.600 1353.400 1004.600 1256.700 1088.400 1208.400 1172.100 1256.700 0.000 0.000 0.000 0.000
31 2 11 4 -502.300 1643.400 -669.800 1546.800 -586.000 1498.400 -502.300 1546.800 -502.300 1643.400 0.000 0.000 0.000 0.000
31 5 11 5 0.000 1546.800 0.000 1595.100 -167.400 1595.100 -167.400 1546.800 -83.700 1498.400 0.000 1546.800 0.000 0.000
31 6 11 5 167.400 1546.800 167.400 1595.100 -0.000 1595.100 -0.000 1546.800 83.700 1498.400 167.400 1546.800 0.000 0.000
31 9 11 4 669.800 1546.800 502.300 1643.400 502.300 1546.800 586.000 1498.400 669.800 1546.800 0.000 0.000 0.000 0.000
32 2 0 4 353.278 86.096 353.293 -86.079 418.592 -48.377 418.663 48.346 353.278 86.096 0.000 0.000 0.000 0.000
32 2 2 4 102.085 349.017 251.215 262.917 251.129 338.368 167.471 386.668 102.085 349.017 0.000 0.000 0.000 0.000
32 11 1 4 1758.102 48.323 1758.108 241.732 1674.379 193.309 1674.358 96.673 1758.102 48.323 0.000 0.000 0.000 0.000
32 12 3 4 1758.129 338.368 1758.084 531.691 1674.405 483.355 1674.384 386.718 1758.129 338.368 0.000 0.000 0.000 0.000
32 12 4 4 1674.405 483.355 1674.410 676.764 1590.681 628.341 1590.660 531.705 1674.405 483.355 0.000 0.000 0.000 0.000
32 12 5 4 1590.681 628.341 1590.687 821.750 1506.958 773.327 1506.937 676.691 1590.681 628.341 0.000 0.000 0.000 0.000
32 12 7 4 1506.963 966.737 1339.560 1063.387 1339.539 966.750 1423.284 918.400 1506.963 966.737 0.000 0.000 0.000 0.000
32 12 8 4 1423.239 1111.723 1255.837 1208.373 1255.816 1111.737 1339.560 1063.387 1423.239 1111.723 0.000 0.000 0.000 0.000
32 12 9 4 1339.516 1256.709 1172.026 1353.409 1172.092 1256.723 1255.837 1208.373 1339.516 1256.709 0.000 0.000 0.000 0.000
32 10 11 4 837.221 1546.709 669.732 1643.409 669.797 1546.723 753.455 1498.423 837.221 1546.709 0.000 0.000 0.000 0.000
32 3 12 4 -418.584 1788.391 -586.029 1691.768 -502.284 1643.418 -418.605 1691.755 -418.584 1788.391 0.000 0.000 0.000 0.000
32 4 12 4 -251.110 1788.464 -418.605 1691.755 -334.860 1643.405 -251.181 1691.741 -251.110 1788.464 0.000 0.000 0.000 0.000
32 5 12 4 -83.687 1788.450 -251.181 1691.741 -167.437 1643.391 -83.758 1691.727 -83.687 1788.450 0.000 0.000 0.000 0.000
32 7 12 4 251.140 1691.787 83.737 1788.437 83.716 1691.800 167.461 1643.450 251.140 1691.787 0.000 0.000 0.000 0.000
32 8 12 4 418.563 1691.773 251.161 1788.423 251.140 1691.787 334.884 1643.437 418.563 1691.773 0.000 0.000 0.000 0.000
32 9 12 4 586.074 1691.709 418.584 1788.409 418.563 1691.773 502.308 1643.423 586.074 1691.709 0.000 0.000 0.000 0.000
33 2 0 4 353.300 86.100 353.300 -86.100 418.600 -48.300 418.600 48.300 353.300 86.100 0.000 0.000 0.000 0.000
33 2 2 4 102.100 349.000 251.200 262.900 251.200 338.400 167.400 386.700 102.100 349.000 0.000 0.000 0.000 0.000
33 12 2 4 1841.800 193.300 1841.800 386.700 1758.100 338.400 1758.100 241.700 1841.800 193.300 0.000 0.000 0.000 0.000
33 13 5 5 1758.100 628.400 1800.000 652.500 1716.300 797.500 1674.400 773.400 1674.400 676.700 1758.100 628.400 0.000 0.000
33 12 6 5 1507.000 773.400 1548.800 797.500 1465.100 942.600 1423.200 918.400 1423.200 821.700 1507.000 773.400 0.000 0.000
33 13 8 5 1507.000 1063.400 1548.800 1087.600 1465.100 1232.600 1423.200 1208.400 1423.200 1111.700 1507.000 1063.400 0.000 0.000
33 12 10 4 1255.800 1401.700 1088.400 1498.400 1088.400 1401.700 1172.100 1353.400 1255.800 1401.700 0.000 0.000 0.000 0.000
33 2 12 4 -586.000 1788.400 -753.500 1691.800 -669.800 1643.400 -586.000 1691.800 -586.000 1788.400 0.000 0.000 0.000 0.000
33 6 12 5 83.700 1691.800 83.700 1740.100 -83.700 1740.100 -83.700 1691.800 -0.000 1643.400 83.700 1691.800 0.000 0.000
33 10 12 4 753.500 1691.800 586.000 1788.400 586.000 1691.800 669.800 1643.400 753.500 1691.800 0.000 0.000 0.000 0.000
33 5 13 5 -167.400 1836.800 -167.400 1885.100 -334.900 1885.100 -334.900 1836.800 -251.200 1788.400 -167.400 1836.800 0.000 0.000
33 8 13 5 334.900 1836.800 334.900 1885.100 167.400 1885.100 167.400 1836.800 251.200 1788.400 334.900 1836.800 0.000 0.000
34 3 1 4 418.600 145.000 418.600 -48.300 502.300 -0.000 502.300 96.700 418.600 145.000 0.000 0.000 0.000 0.000
34 3 3 4 167.400 386.700 334.900 290.000 334.900 386.700 251.200 435.000 167.400 386.700 0.000 0.000 0.000 0.000
34 2 4 5 -83.700 531.700 -83.700 483.400 83.700 483.400 83.700 531.700 0.000 580.000 -83.700 531.700 0.000 0.000
34 10 2 4 1507.000 96.700 1507.000 290.000 1423.200 241.700 1423.200 145.000 1507.000 96.700 0.000 0.000 0.000 0.000
34 10 3 4 1423.200 241.700 1423.200 435.000 1339.500 386.700 1339.500 290.000 1423.200 241.700 0.000 0.000 0.000 0.000
34 10 8 4 1088.400 1015.100 920.900 1111.700 920.900 1015.100 1004.600 966.700 1088.400 1015.100 0.000 0.000 0.000 0.000
34 10 9 4 1004.600 1160.100 837.200 1256.700 837.200 1160.100 920.900 1111.700 1004.600 1160.100 0.000 0.000 0.000 0.000
34 9 10 4 753.500 1305.100 586.000 1401.700 586.000 1305.100 669.800 1256.700 753.500 1305.100 0.000 0.000 0.000 0.000
34 7 11 5 334.900 1450.100 334.900 1498.400 167.400 1498.400 167.400 1450.100 251.200 1401.700 334.900 1450.100 0.000 0.000
34 6 11 5 167.400 1450.100 167.400 1498.400 0.000 1498.400 0.000 1450.100 83.700 1401.700 167.400 1450.100 0.000 0.000
34 5 11 5 0.000 1450.100 0.000 1498.400 -167.400 1498.400 -167.400 1450.100 -83.700 1401.700 0.000 1450.100 0.000 0.000
34 4 11 5 -167.400 1450.100 -167.400 1498.400 -334.900 1498.400 -334.900 1450.100 -251.200 1401.700 -167.400 1450.100 0.000 0.000
34 1 10 4 -586.000 1401.700 -753.500 1305.100 -669.800 1256.700 -586.000 1305.100 -586.000 1401.700 0.000 0.000 0.000 0.000
35 3 1 5 418.600 338.400 376.700 314.200 460.500 169.200 502.300 193.300 502.300 290.000 418.600 338.400 0.000 0.000
35 0 2 4 -251.200 338.400 -83.700 435.000 -167.400 483.400 -251.200 435.000 -251.200 338.400 0.000 0.000 0.000 0.000
35 2 2 4 83.700 435.000 251.200 338.400 251.200 435.000 167.400 483.400 83.700 435.000 0.000 0.000 0.000 0.000
35 9 0 4 1507.000 0.000 1507.000 193.300 1423.200 145.000 1423.200 48.300 1507.000 0.000 0.000 0.000 0.000 0.000
35 10 3 5 1423.200 435.000 1465.100 459.200 1381.400 604.200 1339.500 580.000 1339.500 483.400 1423.200 435.000 0.000 0.000
35 10 4 5 1339.500 580.000 1381.400 604.200 1297.700 749.200 1255.800 725.000 1255.800 628.400 1339.500 580.000 0.000 0.000
35 10 5 5 1255.800 725.000 1297.700 749.200 1213.900 894.200 1172.100 870.000 1172.100 773.400 1255.800 725.000 0.000 0.000
35 10 6 5 1172.100 870.000 1213.900 894.200 1130.200 1039.200 1088.400 1015.100 1088.400 918.400 1172.100 870.000 0.000 0.000
35 9 8 4 920.900 1208.400 753.500 1305.100 753.500 1208.400 837.200 1160.100 920.900 1208.400 0.000 0.000 0.000 0.000
35 1 9 4 -502.300 1450.100 -669.800 1353.400 -586.000 1305.100 -502.300 1353.400 -502.300 1450.100 0.000 0.000 0.000 0.000
35 2 9 4 -334.900 1450.100 -502.300 1353.400 -418.600 1305.100 -334.900 1353.400 -334.900 1450.100 0.000 0.000 0.000 0.000
35 7 9 4 502.300 1353.400 334.900 1450.100 334.900 1353.400 418.600 1305.100 502.300 1353.400 0.000 0.000 0.000 0.000
35 8 9 4 669.800 1353.400 502.300 1450.100 502.300 1353.400 586.000 1305.100 669.800 1353.400 0.000 0.000 0.000 0.000
36 3 1 4 418.600 145.000 418.600 -48.300 502.300 -0.000 502.300 96.700 418.600 145.000 0.000 0.000 0.000 0.000
36 3 3 4 167.400 386.700 334.900 290.000 334.900 386.700 251.200 435.000 167.400 386.700 0.000 0.000 0.000 0.000
36 2 4 5 -83.700 531.700 -83.700 483.400 83.700 483.400 83.700 531.700 0.000 580.000 -83.700 531.700 0.000 0.000
36 10 2 4 1507.000 96.700 1507.000 290.000 1423.200 241.700 1423.200 145.000 1507.000 96.700 0.000 0.000 0.000 0.000
36 10 3 4 1423.200 241.700 1423.200 435.000 1339.500 386.700 1339.500 290.000 1423.200 241.700 0.000 0.000 0.000 0.000
36 10 8 4 1088.400 1015.100 920.900 1111.700 920.900 1015.100 1004.600 966.700 1088.400 1015.100 0.000 0.000 0.000 0.000
36 10 9 4 1004.600 1160.100 837.200 1256.700 837.200 1160.100 920.900 1111.700 1004.600 1160.100 0.000 0.000 0.000 0.000
36 9 10 4 753.500 1305.100 586.000 1401.700 586.000 1305.100 669.800 1256.700 753.500 1305.100 0.000 0.000 0.000 0.000
36 7 11 5 334.900 1450.100 334.900 1498.400 167.400 1498.400 167.400 1450.100 251.200 1401.700 334.900 1450.100 0.000 0.000
36 6 11 5 167.400 1450.100 167.400 1498.400 0.000 1498.400 0.000 1450.100 83.700 1401.700 167.400 1450.100 0.000 0.000
36 5 11 5 0.000 1450.100 0.000 1498.400 -167.400 1498.400 -167.400 1450.100 -83.700 1401.700 0.000 1450.100 0.000 0.000
36 4 11 5 -167.400 1450.100 -167.400 1498.400 -334.900 1498.400 -334.900 1450.100 -251.200 1401.700 -167.400 1450.100 0.000 0.000
36 1 10 4 -586.000 1401.700 -753.500 1305.100 -669.800 1256.700 -586.000 1305.100 -586.000 1401.700 0.000 0.000 0.000 0.000
37 3 1 5 418.600 338.400 376.700 314.200 460.500 169.200 502.300 193.300 502.300 290.000 418.600 338.400 0.000 0.000
37 0 2 4 -251.200 338.400 -83.700 435.000 -167.400 483.400 -251.200 435.000 -251.200 338.400 0.000 0.000 0.000 0.000
37 2 2 4 83.700 435.000 251.200 338.400 251.200 435.000 167.400 483.400 83.700 435.000 0.000 0.000 0.000 0.000
37 9 0 4 1507.000 0.000 1507.000 193.300 1423.200 145.000 1423.200 48.300 1507.000 0.000 0.000 0.000 0.000 0.000
37 10 3 5 1423.200 435.000 1465.100 459.200 1381.400 604.200 1339.500 580.000 1339.500 483.400 1423.200 435.000 0.000 0.000
37 10 4 5 1339.500 580.000 1381.400 604.200 1297.700 749.200 1255.800 725.000 1255.800 628.400 1339.500 580.000 0.000 0.000
37 10 5 5 1255.800 725.000 1297.700 749.200 1213.900 894.200 1172.100 870.000 1172.100 773.400 1255.800 725.000 0.000 0.000
37 10 6 5 1172.100 870.000 1213.900 894.200 1130.200 1039.200 1088.400 1015.100 1088.400 918.400 1172.100 870.000 0.000 0.000
37 9 8 4 920.900 1208.400 753.500 1305.100 753.500 1208.400 837.200 1160.100 920.900 1208.400 0.000 0.000 0.000 0.000
37 1 9 4 -502.300 1450.100 -669.800 1353.400 -586.000 1305.100 -502.300 1353.400 -502.300 1450.100 0.000 0.000 0.000 0.000
37 2 9 4 -334.900 1450.100 -502.300 1353.400 -418.600 1305.100 -334.900 1353.400 -334.900 1450.100 0.000 0.000 0.000 0.000
37 7 9 4 502.300 1353.400 334.900 1450.100 334.900 1353.400 418.600 1305.100 502.300 1353.400 0.000 0.000 0.000 0.000
37 8 9 4 669.800 1353.400 502.300 1450.100 502.300 1353.400 586.000 1305.100 669.800 1353.400 0.000 0.000 0.000 0.000
38 4 2 4 502.300 290.000 502.300 96.700 586.000 145.000 586.000 241.700 502.300 290.000 0.000 0.000 0.000 0.000
38 4 3 4 334.900 386.700 502.300 290.000 502.300 386.700 418.600 435.000 334.900 386.700 0.000 0.000 0.000 0.000
38 3 4 4 83.700 531.700 251.200 435.000 251.200 531.700 167.400 580.000 83.700 531.700 0.000 0.000 0.000 0.000
38 1 4 4 -251.200 435.000 -83.700 531.700 -167.400 580.000 -251.200 531.700 -251.200 435.000 0.000 0.000 0.000 0.000
38 9 2 4 1339.500 96.700 1339.500 290.000 1255.800 241.700 1255.800 145.000 1339.500 96.700 0.000 0.000 0.000 0.000
38 9 3 4 1255.800 241.700 1255.800 435.000 1172.100 386.700 1172.100 290.000 1255.800 241.700 0.000 0.000 0.000 0.000
38 9 7 4 1004.600 870.000 837.200 966.700 837.200 870.000 920.900 821.700 1004.600 870.000 0.000 0.000 0.000 0.000
38 9 8 4 920.900 1015.100 753.500 1111.700 753.500 1015.100 837.200 966.700 920.900 1015.100 0.000 0.000 0.000 0.000
38 8 9 4 669.800 1160.100 502.300 1256.700 502.300 1160.100 586.000 1111.700 669.800 1160.100 0.000 0.000 0.000 0.000
38 6 10 5 251.200 1305.100 251.200 1353.400 83.700 1353.400 83.700 1305.100 167.400 1256.700 251.200 1305.100 0.000 0.000
38 5 10 5 83.700 1305.100 83.700 1353.400 -83.700 1353.400 -83.700 1305.100 0.000 1256.700 83.700 1305.100 0.000 0.000
38 4 10 5 -83.700 1305.100 -83.700 1353.400 -251.200 1353.400 -251.200 1305.100 -167.400 1256.700 -83.700 1305.100 0.000 0.000
38 1 9 4 -502.300 1256.700 -669.800 1160.100 -586.000 1111.700 -502.300 1160.100 -502.300 1256.700 0.000 0.000 0.000 0.000
39 3 0 4 502.300 193.300 502.300 0.000 586.000 48.300 586.000 145.000 502.300 193.300 0.000 0.000 0.000 0.000
39 3 2 4 251.200 435.000 418.600 338.400 418.600 435.000 334.900 483.400 251.200 435.000 0.000 0.000 0.000 0.000
39 1 3 4 -167.400 483.400 0.000 580.000 -83.700 628.400 -167.400 580.000 -167.400 483.400 0.000 0.000 0.000 0.000
39 2 3 4 -0.000 580.000 167.400 483.400 167.400 580.000 83.700 628.400 -0.000 580.000 0.000 0.000 0.000 0.000
39 8 0 4 1339.500 0.000 1339.500 193.300 1255.800 145.000 1255.800 48.300 1339.500 0.000 0.000 0.000 0.000 0.000
39 9 3 5 1255.800 435.000 1297.700 459.200 1213.900 604.200 1172.100 580.000 1172.100 483.400 1255.800 435.000 0.000 0.000
39 9 4 5 1172.100 580.000 1213.900 604.200 1130.200 749.200 1088.400 725.000 1088.400 628.400 1172.100 580.000 0.000 0.000
39 9 5 5 1088.400 725.000 1130.200 749.200 1046.500 894.200 1004.600 870.000 1004.600 773.400 1088.400 725.000 0.000 0.000
39 8 7 4 837.200 1063.400 669.800 1160.100 669.800 1063.400 753.500 1015.100 837.200 1063.400 0.000 0.000 0.000 0.000
39 1 8 4 -418.600 1305.100 -586.000 1208.400 -502.300 1160.100 -418.600 1208.400 -418.600 1305.100 0.000 0.000 0.000 0.000
39 2 8 4 -251.200 1305.100 -418.600 1208.400 -334.900 1160.100 -251.200 1208.400 -251.200 1305.100 0.000 0.000 0.000 0.000
39 6 8 4 418.600 1208.400 251.200 1305.100 251.200 1208.400 334.900 1160.100 418.600 1208.400 0.000 0.000 0.000 0.000
39 7 8 4 586.000 1208.400 418.600 1305.100 418.600 1208.400 502.300 1160.100 586.000 1208.400 0.000 0.000 0.000 0.000
40 4 2 4 502.300 290.000 502.300 96.700 586.000 145.000 586.000 241.700 502.300 290.000 0.000 0.000 0.000 0.000
40 4 3 4 334.900 386.700 502.300 290.000 502.300 386.700 418.600 435.000 334.900 386.700 0.000 0.000 0.000 0.000
40 3 4 4 83.700 531.700 251.200 435.000 251.200 531.700 167.400 580.000 83.700 531.700 0.000 0.000 0.000 0.000
40 1 4 4 -251.200 435.000 -83.700 531.700 -167.400 580.000 -251.200 531.700 -251.200 435.000 0.000 0.000 0.000 0.000
40 8 2 4 1172.100 96.700 1172.100 290.000 1088.400 241.700 1088.400 145.000 1172.100 96.700 0.000 0.000 0.000 0.000
40 8 3 4 1088.400 241.700 1088.400 435.000 1004.600 386.700 1004.600 290.000 1088.400 241.700 0.000 0.000 0.000 0.000
40 8 4 5 1004.600 386.700 1046.500 410.900 962.800 555.900 920.900 531.700 920.900 435.000 1004.600 386.700 0.000 0.000
40 8 5 5 920.900 531.700 962.800 555.900 879.100 700.900 837.200 676.700 837.200 580.000 920.900 531.700 0.000 0.000
40 8 6 4 920.900 725.000 753.500 821.700 753.500 725.000 837.200 676.700 920.900 725.000 0.000 0.000 0.000 0.000
40 8 7 4 837.200 870.000 669.800 966.700 669.800 870.000 753.500 821.700 837.200 870.000 0.000 0.000 0.000 0.000
40 7 8 4 586.000 1015.100 418.600 1111.700 418.600 1015.100 502.300 966.700 586.000 1015.100 0.000 0.000 0.000 0.000
40 1 8 4 -418.600 1111.700 -586.000 1015.100 -502.300 966.700 -418.600 1015.100 -418.600 1111.700 0.000 0.000 0.000 0.000
41 3 0 4 502.300 193.300 502.300 0.000 586.000 48.300 586.000 145.000 502.300 193.300 0.000 0.000 0.000 0.000
41 3 2 4 251.200 435.000 418.600 338.400 418.600 435.000 334.900 483.400 251.200 435.000 0.000 0.000 0.000 0.000
41 1 3 4 -167.400 483.400 0.000 580.000 -83.700 628.400 -167.400 580.000 -167.400 483.400 0.000 0.000 0.000 0.000
41 2 3 4 0.000 580.000 167.400 483.400 167.400 580.000 83.700 628.400 0.000 580.000 0.000 0.000 0.000 0.000
41 7 0 4 1172.100 0.000 1172.100 193.300 1088.400 145.000 1088.400 48.300 1172.100 0.000 0.000 0.000 0.000 0.000
41 7 6 4 753.500 918.400 586.000 1015.100 586.000 918.400 669.800 870.000 753.500 918.400 0.000 0.000 0.000 0.000
41 1 7 4 -334.900 1160.100 -502.300 1063.400 -418.600 1015.100 -334.900 1063.400 -334.900 1160.100 0.000 0.000 0.000 0.000
41 2 7 4 -167.400 1160.100 -334.900 1063.400 -251.200 1015.100 -167.400 1063.400 -167.400 1160.100 0.000 0.000 0.000 0.000
41 3 7 5 0.000 1063.400 0.000 1111.700 -167.400 1111.700 -167.400 1063.400 -83.700 1015.100 0.000 1063.400 0.000 0.000
41 4 7 5 167.400 1063.400 167.400 1111.700 0.000 1111.700 0.000 1063.400 83.700 1015.100 167.400 1063.400 0.000 0.000
41 5 7 4 334.900 1063.400 167.400 1160.100 167.400 1063.400 251.200 1015.100 334.900 1063.400 0.000 0.000 0.000 0.000
41 6 7 4 502.300 1063.400 334.900 1160.100 334.900 1063.400 418.600 1015.100 502.300 1063.400 0.000 0.000 0.000 0.000
42 4 2 4 502.300 290.000 502.300 96.700 586.000 145.000 586.000 241.700 502.300 290.000 0.000 0.000 0.000 0.000
42 4 3 4 334.900 386.700 502.300 290.000 502.300 386.700 418.600 435.000 334.900 386.700 0.000 0.000 0.000 0.000
42 3 4 4 83.700 531.700 251.200 435.000 251.200 531.700 167.400 580.000 83.700 531.700 0.000 0.000 0.000 0.000
42 1 4 4 -251.200 435.000 -83.700 531.700 -167.400 580.000 -251.200 531.700 -251.200 435.000 0.000 0.000 0.000 0.000
42 8 2 4 1172.100 96.700 1172.100 290.000 1088.400 241.700 1088.400 145.000 1172.100 96.700 0.000 0.000 0.000 0.000
42 8 3 4 1088.400 241.700 1088.400 435.000 1004.600 386.700 1004.600 290.000 1088.400 241.700 0.000 0.000 0.000 0.000
42 8 4 5 1004.600 386.700 1046.500 410.900 962.800 555.900 920.900 531.700 920.900 435.000 1004.600 386.700 0.000 0.000
42 8 5 5 920.900 531.700 962.800 555.900 879.100 700.900 837.200 676.700 837.200 580.000 920.900 531.700 0.000 0.000
42 8 6 4 920.900 725.000 753.500 821.700 753.500 725.000 837.200 676.700 920.900 725.000 0.000 0.000 0.000 0.000
42 8 7 4 837.200 870.000 669.800 966.700 669.800 870.000 753.500 821.700 837.200 870.000 0.000 0.000 0.000 0.000
42 7 8 4 586.000 1015.100 418.600 1111.700 418.600 1015.100 502.300 966.700 586.000 1015.100 0.000 0.000 0.000 0.000
42 1 8 4 -418.600 1111.700 -586.000 1015.100 -502.300 966.700 -418.600 1015.100 -418.600 1111.700 0.000 0.000 0.000 0.000
43 3 0 4 502.300 193.300 502.300 0.000 586.000 48.300 586.000 145.000 502.300 193.300 0.000 0.000 0.000 0.000
43 3 2 4 251.200 435.000 418.600 338.400 418.600 435.000 334.900 483.400 251.200 435.000 0.000 0.000 0.000 0.000
43 1 3 4 -167.400 483.400 0.000 580.000 -83.700 628.400 -167.400 580.000 -167.400 483.400 0.000 0.000 0.000 0.000
43 2 3 4 -0.000 580.000 167.400 483.400 167.400 580.000 83.700 628.400 -0.000 580.000 0.000 0.000 0.000 0.000
43 7 0 4 1172.100 0.000 1172.100 193.300 1088.400 145.000 1088.400 48.300 1172.100 0.000 0.000 0.000 0.000 0.000
43 7 6 4 753.500 918.400 586.000 1015.100 586.000 918.400 669.800 870.000 753.500 918.400 0.000 0.000 0.000 0.000
43 1 7 4 -334.900 1160.100 -502.300 1063.400 -418.600 1015.100 -334.900 1063.400 -334.900 1160.100 0.000 0.000 0.000 0.000
43 2 7 4 -167.400 1160.100 -334.900 1063.400 -251.200 1015.100 -167.400 1063.400 -167.400 1160.100 0.000 0.000 0.000 0.000
43 3 7 5 0.000 1063.400 0.000 1111.700 -167.400 1111.700 -167.400 1063.400 -83.700 1015.100 0.000 1063.400 0.000 0.000
43 4 7 5 167.400 1063.400 167.400 1111.700 -0.000 1111.700 -0.000 1063.400 83.700 1015.100 167.400 1063.400 0.000 0.000
43 5 7 4 334.900 1063.400 167.400 1160.100 167.400 1063.400 251.200 1015.100 334.900 1063.400 0.000 0.000 0.000 0.000
43 6 7 4 502.300 1063.400 334.900 1160.100 334.900 1063.400 418.600 1015.100 502.300 1063.400 0.000 0.000 0.000 0.000
44 4 2 4 502.300 290.000 502.300 96.700 586.000 145.000 586.000 241.700 502.300 290.000 0.000 0.000 0.000 0.000
44 4 3 4 334.900 386.700 502.300 290.000 502.300 386.700 418.600 435.000 334.900 386.700 0.000 0.000 0.000 0.000
44 3 4 4 83.700 531.700 251.200 435.000 251.200 531.700 167.400 580.000 83.700 531.700 0.000 0.000 0.000 0.000
44 1 4 4 -251.200 435.000 -83.700 531.700 -167.400 580.000 -251.200 531.700 -251.200 435.000 0.000 0.000 0.000 0.000
44 7 2 4 1004.600 96.700 1004.600 290.000 920.900 241.700 920.900 145.000 1004.600 96.700 0.000 0.000 0.000 0.000
44 7 3 5 920.900 241.700 962.800 265.800 879.100 410.900 837.200 386.700 837.200 290.000 920.900 241.700 0.000 0.000
44 7 4 5 837.200 386.700 879.100 410.900 795.300 555.900 753.500 531.700 753.500 435.000 837.200 386.700 0.000 0.000
44 7 5 5 753.500 531.700 795.300 555.900 711.600 700.900 669.800 676.700 669.800 580.000 753.500 531.700 0.000 0.000
44 7 6 4 753.500 725.000 586.000 821.700 586.000 725.000 669.800 676.700 753.500 725.000 0.000 0.000 0.000 0.000
44 6 7 4 502.300 870.000 334.900 966.700 334.900 870.000 418.600 821.700 502.300 870.000 0.000 0.000 0.000 0.000
44 1 7 4 -334.900 966.700 -502.300 870.000 -418.600 821.700 -334.900 870.000 -334.900 966.700 0.000 0.000 0.000 0.000
45 3 0 4 502.300 193.300 502.300 0.000 586.000 48.300 586.000 145.000 502.300 193.300 0.000 0.000 0.000 0.000
45 3 2 4 251.200 435.000 418.600 338.400 418.600 435.000 334.900 483.400 251.200 435.000 0.000 0.000 0.000 0.000
45 1 3 4 -167.400 483.400 0.000 580.000 -83.700 628.400 -167.400 580.000 -167.400 483.400 0.000 0.000 0.000 0.000
45 2 3 4 0.000 580.000 167.400 483.400 167.400 580.000 83.700 628.400 0.000 580.000 0.000 0.000 0.000 0.000
45 6 0 4 1004.600 0.000 1004.600 193.300 920.900 145.000 920.900 48.300 1004.600 0.000 0.000 0.000 0.000 0.000
45 6 5 4 669.800 773.400 502.300 870.000 502.300 773.400 586.000 725.000 669.800 773.400 0.000 0.000 0.000 0.000
45 1 6 4 -251.200 1015.100 -418.600 918.400 -334.900 870.000 -251.200 918.400 -251.200 1015.100 0.000 0.000 0.000 0.000
45 2 6 5 -83.700 918.400 -83.700 966.700 -251.200 966.700 -251.200 918.400 -167.400 870.000 -83.700 918.400 0.000 0.000
45 3 6 5 83.700 918.400 83.700 966.700 -83.700 966.700 -83.700 918.400 -0.000 870.000 83.700 918.400 0.000 0.000
45 4 6 5 251.200 918.400 251.200 966.700 83.700 966.700 83.700 918.400 167.400 870.000 251.200 918.400 0.000 0.000
45 5 6 4 418.600 918.400 251.200 1015.100 251.200 918.400 334.900 870.000 418.600 918.400 0.000 0.000 0.000 0.000
46 4 2 4 502.300 290.000 502.300 96.700 586.000 145.000 586.000 241.700 502.300 290.000 0.000 0.000 0.000 0.000
46 4 3 4 334.900 386.700 502.300 290.000 502.300 386.700 418.600 435.000 334.900 386.700 0.000 0.000 0.000 0.000
46 3 4 4 83.700 531.700 251.200 435.000 251.200 531.700 167.400 580.000 83.700 531.700 0.000 0.000 0.000 0.000
46 1 4 4 -251.200 435.000 -83.700 531.700 -167.400 580.000 -251.200 531.700 -251.200 435.000 0.000 0.000 0.000 0.000
46 7 2 4 1004.600 96.700 1004.600 290.000 920.900 241.700 920.900 145.000 1004.600 96.700 0.000 0.000 0.000 0.000
46 7 3 5 920.900 241.700 962.800 265.800 879.100 410.900 837.200 386.700 837.200 290.000 920.900 241.700 0.000 0.000
46 7 4 5 837.200 386.700 879.100 410.900 795.300 555.900 753.500 531.700 753.500 435.000 837.200 386.700 0.000 0.000
46 7 5 5 753.500 531.700 795.300 555.900 711.600 700.900 669.800 676.700 669.800 580.000 753.500 531.700 0.000 0.000
46 7 6 4 753.500 725.000 586.000 821.700 586.000 725.000 669.800 676.700 753.500 725.000 0.000 0.000 0.000 0.000
46 6 7 4 502.300 870.000 334.900 966.700 334.900 870.000 418.600 821.700 502.300 870.000 0.000 0.000 0.000 0.000
46 1 7 4 -334.900 966.700 -502.300 870.000 -418.600 821.700 -334.900 870.000 -334.900 966.700 0.000 0.000 0.000 0.000
47 3 0 4 502.300 193.300 502.300 0.000 586.000 48.300 586.000 145.000 502.300 193.300 0.000 0.000 0.000 0.000
47 3 2 4 251.200 435.000 418.600 338.400 418.600 435.000 334.900 483.400 251.200 435.000 0.000 0.000 0.000 0.000
47 1 3 4 -167.400 483.400 0.000 580.000 -83.700 628.400 -167.400 580.000 -167.400 483.400 0.000 0.000 0.000 0.000
47 2 3 4 0.000 580.000 167.400 483.400 167.400 580.000 83.700 628.400 0.000 580.000 0.000 0.000 0.000 0.000
47 6 0 4 1004.600 0.000 1004.600 193.300 920.900 145.000 920.900 48.300 1004.600 0.000 0.000 0.000 0.000 0.000
47 6 5 4 669.800 773.400 502.300 870.000 502.300 773.400 586.000 725.000 669.800 773.400 0.000 0.000 0.000 0.000
47 1 6 4 -251.200 1015.100 -418.600 918.400 -334.900 870.000 -251.200 918.400 -251.200 1015.100 0.000 0.000 0.000 0.000
47 2 6 5 -83.700 918.400 -83.700 966.700 -251.200 966.700 -251.200 918.400 -167.400 870.000 -83.700 918.400 0.000 0.000
47 3 6 5 83.700 918.400 83.700 966.700 -83.700 966.700 -83.700 918.400 -0.000 870.000 83.700 918.400 0.000 0.000
47 4 6 5 251.200 918.400 251.200 966.700 83.700 966.700 83.700 918.400 167.400 870.000 251.200 918.400 0.000 0.000
47 5 6 4 418.600 918.400 251.200 1015.100 251.200 918.400 334.900 870.000 418.600 918.400 0.000 0.000 0.000 0.000
1 2 10 0 0.000 0.000 0.000 0.000 0.000 0.000 0.000 0.000 0.000 0.000 0.000 0.000 0.000 0.000
1 8 10 0 0.000 0.000 0.000 0.000 0.000 0.000 0.000 0.000 0.000 0.000 0.000 0.000 0.000 0.000
1 9 0 0 0.000 0.000 0.000 0.000 0.000 0.000 0.000 0.000 0.000 0.000 0.000 0.000 0.000 0.000
1 9 9 0 0.000 0.000 0.000 0.000 0.000 0.000 0.000 0.000 0.000 0.000 0.000 0.000 0.000 0.000
1 10 2 0 0.000 0.000 0.000 0.000 0.000 0.000 0.000 0.000 0.000 0.000 0.000 0.000 0.000 0.000
1 10 8 0 0.000 0.000 0.000 0.000 0.000 0.000 0.000 0.000 0.000 0.000 0.000 0.000 0.000 0.000
2 4 10 0 0.000 0.000 0.000 0.000 0.000 0.000 0.000 0.000 0.000 0.000 0.000 0.000 0.000 0.000
2 5 10 0 0.000 0.000 0.000 0.000 0.000 0.000 0.000 0.000 0.000 0.000 0.000 0.000 0.000 0.000
2 6 10 0 0.000 0.000 0.000 0.000 0.000 0.000 0.000 0.000 0.000 0.000 0.000 0.000 0.000 0.000
2 10 4 0 0.000 0.000 0.000 0.000 0.000 0.000 0.000 0.000 0.000 0.000 0.000 0.000 0.000 0.000
2 10 5 0 0.000 0.000 0.000 0.000 0.000 0.000 0.000 0.000 0.000 0.000 0.000 0.000 0.000 0.000
2 10 6 0 0.000 0.000 0.000 0.000 0.000 0.000 0.000 0.000 0.000 0.000 0.000 0.000 0.000 0.000
3 2 10 0 0.000 0.000 0.000 0.000 0.000 0.000 0.000 0.000 0.000 0.000 0.000 0.000 0.000 0.000
3 8 10 0 0.000 0.000 0.000 0.000 0.000 0.000 0.000 0.000 0.000 0.000 0.000 0.000 0.000 0.000
3 9 0 0 0.000 0.000 0.000 0.000 0.000 0.000 0.000 0.000 0.000 0.000 0.000 0.000 0.000 0.000
3 9 9 0 0.000 0.000 0.000 0.000 0.000 0.000 0.000 0.000 0.000 0.000 0.000 0.000 0.000 0.000
3 10 2 0 0.000 0.000 0.000 0.000 0.000 0.000 0.000 0.000 0.000 0.000 0.000 0.000 0.000 0.000
3 10 8 0 0.000 0.000 0.000 0.000 0.000 0.000 0.000 0.000 0.000 0.000 0.000 0.000 0.000 0.000
4 4 10 0 0.000 0.000 0.000 0.000 0.000 0.000 0.000 0.000 0.000 0.000 0.000 0.000 0.000 0.000
4 5 10 0 0.000 0.000 0.000 0.000 0.000 0.000 0.000 0.000 0.000 0.000 0.000 0.000 0.000 0.000
4 6 10 0 0.000 0.000 0.000 0.000 0.000 0.000 0.000 0.000 0.000 0.000 0.000 0.000 0.000 0.000
4 10 4 0 0.000 0.000 0.000 0.000 0.000 0.000 0.000 0.000 0.000 0.000 0.000 0.000 0.000 0.000
4 10 5 0 0.000 0.000 0.000 0.000 0.000 0.000 0.000 0.000 0.000 0.000 0.000 0.000 0.000 0.000
4 10 6 0 0.000 0.000 0.000 0.000 0.000 0.000 0.000 0.000 0.000 0.000 0.000 0.000 0.000 0.000
5 2 10 0 0.000 0.000 0.000 0.000 0.000 0.000 0.000 0.000 0.000 0.000 0.000 0.000 0.000 0.000
5 8 10 0 0.000 0.000 0.000 0.000 0.000 0.000 0.000 0.000 0.000 0.000 0.000 0.000 0.000 0.000
5 9 0 0 0.000 0.000 0.000 0.000 0.000 0.000 0.000 0.000 0.000 0.000 0.000 0.000 0.000 0.000
5 9 9 0 0.000 0.000 0.000 0.000 0.000 0.000 0.000 0.000 0.000 0.000 0.000 0.000 0.000 0.000
5 10 2 0 0.000 0.000 0.000 0.000 0.000 0.000 0.000 0.000 0.000 0.000 0.000 0.000 0.000 0.000
5 10 8 0 0.000 0.000 0.000 0.000 0.000 0.000 0.000 0.000 0.000 0.000 0.000 0.000 0.000 0.000
6 3 10 0 0.000 0.000 0.000 0.000 0.000 0.000 0.000 0.000 0.000 0.000 0.000 0.000 0.000 0.000
6 7 10 0 0.000 0.000 0.000 0.000 0.000 0.000 0.000 0.000 0.000 0.000 0.000 0.000 0.000 0.000
6 10 3 0 0.000 0.000 0.000 0.000 0.000 0.000 0.000 0.000 0.000 0.000 0.000 0.000 0.000 0.000
6 10 7 0 0.000 0.000 0.000 0.000 0.000 0.000 0.000 0.000 0.000 0.000 0.000 0.000 0.000 0.000
7 2 10 0 0.000 0.000 0.000 0.000 0.000 0.000 0.000 0.000 0.000 0.000 0.000 0.000 0.000 0.000
7 8 10 0 0.000 0.000 0.000 0.000 0.000 0.000 0.000 0.000 0.000 0.000 0.000 0.000 0.000 0.000
7 9 0 0 0.000 0.000 0.000 0.000 0.000 0.000 0.000 0.000 0.000 0.000 0.000 0.000 0.000 0.000
7 9 9 0 0.000 0.000 0.000 0.000 0.000 0.000 0.000 0.000 0.000 0.000 0.000 0.000 0.000 0.000
7 10 2 0 0.000 0.000 0.000 0.000 0.000 0.000 0.000 0.000 0.000 0.000 0.000 0.000 0.000 0.000
7 10 8 0 0.000 0.000 0.000 0.000 0.000 0.000 0.000 0.000 0.000 0.000 0.000 0.000 0.000 0.000
8 3 10 0 0.000 0.000 0.000 0.000 0.000 0.000 0.000 0.000 0.000 0.000 0.000 0.000 0.000 0.000
8 7 10 0 0.000 0.000 0.000 0.000 0.000 0.000 0.000 0.000 0.000 0.000 0.000 0.000 0.000 0.000
8 10 3 0 0.000 0.000 0.000 0.000 0.000 0.000 0.000 0.000 0.000 0.000 0.000 0.000 0.000 0.000
8 10 7 0 0.000 0.000 0.000 0.000 0.000 0.000 0.000 0.000 0.000 0.000 0.000 0.000 0.000 0.000
14 2 10 0 0.000 0.000 0.000 0.000 0.000 0.000 0.000 0.000 0.000 0.000 0.000 0.000 0.000 0.000
14 8 10 0 0.000 0.000 0.000 0.000 0.000 0.000 0.000 0.000 0.000 0.000 0.000 0.000 0.000 0.000
14 10 2 0 0.000 0.000 0.000 0.000 0.000 0.000 0.000 0.000 0.000 0.000 0.000 0.000 0.000 0.000
14 10 8 0 0.000 0.000 0.000 0.000 0.000 0.000 0.000 0.000 0.000 0.000 0.000 0.000 0.000 0.000
15 4 11 0 0.000 0.000 0.000 0.000 0.000 0.000 0.000 0.000 0.000 0.000 0.000 0.000 0.000 0.000
15 7 11 0 0.000 0.000 0.000 0.000 0.000 0.000 0.000 0.000 0.000 0.000 0.000 0.000 0.000 0.000
15 11 4 0 0.000 0.000 0.000 0.000 0.000 0.000 0.000 0.000 0.000 0.000 0.000 0.000 0.000 0.000
15 11 7 0 0.000 0.000 0.000 0.000 0.000 0.000 0.000 0.000 0.000 0.000 0.000 0.000 0.000 0.000
17 4 11 0 0.000 0.000 0.000 0.000 0.000 0.000 0.000 0.000 0.000 0.000 0.000 0.000 0.000 0.000
17 7 11 0 0.000 0.000 0.000 0.000 0.000 0.000 0.000 0.000 0.000 0.000 0.000 0.000 0.000 0.000
17 11 4 0 0.000 0.000 0.000 0.000 0.000 0.000 0.000 0.000 0.000 0.000 0.000 0.000 0.000 0.000
17 11 7 0 0.000 0.000 0.000 0.000 0.000 0.000 0.000 0.000 0.000 0.000 0.000 0.000 0.000 0.000
19 4 11 0 0.000 0.000 0.000 0.000 0.000 0.000 0.000 0.000 0.000 0.000 0.000 0.000 0.000 0.000
19 7 11 0 0.000 0.000 0.000 0.000 0.000 0.000 0.000 0.000 0.000 0.000 0.000 0.000 0.000 0.000
19 9 10 0 0.000 0.000 0.000 0.000 0.000 0.000 0.000 0.000 0.000 0.000 0.000 0.000 0.000 0.000
19 10 1 0 0.000 0.000 0.000 0.000 0.000 0.000 0.000 0.000 0.000 0.000 0.000 0.000 0.000 0.000
19 11 4 0 0.000 0.000 0.000 0.000 0.000 0.000 0.000 0.000 0.000 0.000 0.000 0.000 0.000 0.000
19 11 7 0 0.000 0.000 0.000 0.000 0.000 0.000 0.000 0.000 0.000 0.000 0.000 0.000 0.000 0.000
21 1 10 0 0.000 0.000 0.000 0.000 0.000 0.000 0.000 0.000 0.000 0.000 0.000 0.000 0.000 0.000
21 4 11 0 0.000 0.000 0.000 0.000 0.000 0.000 0.000 0.000 0.000 0.000 0.000 0.000 0.000 0.000
21 7 11 0 0.000 0.000 0.000 0.000 0.000 0.000 0.000 0.000 0.000 0.000 0.000 0.000 0.000 0.000
21 10 9 0 0.000 0.000 0.000 0.000 0.000 0.000 0.000 0.000 0.000 0.000 0.000 0.000 0.000 0.000
21 11 4 0 0.000 0.000 0.000 0.000 0.000 0.000 0.000 0.000 0.000 0.000 0.000 0.000 0.000 0.000
21 11 7 0 0.000 0.000 0.000 0.000 0.000 0.000 0.000 0.000 0.000 0.000 0.000 0.000 0.000 0.000
23 1 10 0 0.000 0.000 0.000 0.000 0.000 0.000 0.000 0.000 0.000 0.000 0.000 0.000 0.000 0.000
23 3 11 0 0.000 0.000 0.000 0.000 0.000 0.000 0.000 0.000 0.000 0.000 0.000 0.000 0.000 0.000
23 4 11 0 0.000 0.000 0.000 0.000 0.000 0.000 0.000 0.000 0.000 0.000 0.000 0.000 0.000 0.000
23 7 11 0 0.000 0.000 0.000 0.000 0.000 0.000 0.000 0.000 0.000 0.000 0.000 0.000 0.000 0.000
23 8 11 0 0.000 0.000 0.000 0.000 0.000 0.000 0.000 0.000 0.000 0.000 0.000 0.000 0.000 0.000
23 10 9 0 0.000 0.000 0.000 0.000 0.000 0.000 0.000 0.000 0.000 0.000 0.000 0.000 0.000 0.000
23 11 3 0 0.000 0.000 0.000 0.000 0.000 0.000 0.000 0.000 0.000 0.000 0.000 0.000 0.000 0.000
23 11 4 0 0.000 0.000 0.000 0.000 0.000 0.000 0.000 0.000 0.000 0.000 0.000 0.000 0.000 0.000
23 11 7 0 0.000 0.000 0.000 0.000 0.000 0.000 0.000 0.000 0.000 0.000 0.000 0.000 0.000 0.000
23 11 8 0 0.000 0.000 0.000 0.000 0.000 0.000 0.000 0.000 0.000 0.000 0.000 0.000 0.000 0.000
24 4 11 0 0.000 0.000 0.000 0.000 0.000 0.000 0.000 0.000 0.000 0.000 0.000 0.000 0.000 0.000
24 5 11 0 0.000 0.000 0.000 0.000 0.000 0.000 0.000 0.000 0.000 0.000 0.000 0.000 0.000 0.000
24 6 11 0 0.000 0.000 0.000 0.000 0.000 0.000 0.000 0.000 0.000 0.000 0.000 0.000 0.000 0.000
24 7 11 0 0.000 0.000 0.000 0.000 0.000 0.000 0.000 0.000 0.000 0.000 0.000 0.000 0.000 0.000
24 11 4 0 0.000 0.000 0.000 0.000 0.000 0.000 0.000 0.000 0.000 0.000 0.000 0.000 0.000 0.000
24 11 5 0 0.000 0.000 0.000 0.000 0.000 0.000 0.000 0.000 0.000 0.000 0.000 0.000 0.000 0.000
24 11 6 0 0.000 0.000 0.000 0.000 0.000 0.000 0.000 0.000 0.000 0.000 0.000 0.000 0.000 0.000
24 11 7 0 0.000 0.000 0.000 0.000 0.000 0.000 0.000 0.000 0.000 0.000 0.000 0.000 0.000 0.000
25 1 10 0 0.000 0.000 0.000 0.000 0.000 0.000 0.000 0.000 0.000 0.000 0.000 0.000 0.000 0.000
25 3 11 0 0.000 0.000 0.000 0.000 0.000 0.000 0.000 0.000 0.000 0.000 0.000 0.000 0.000 0.000
25 5 11 0 0.000 0.000 0.000 0.000 0.000 0.000 0.000 0.000 0.000 0.000 0.000 0.000 0.000 0.000
25 6 11 0 0.000 0.000 0.000 0.000 0.000 0.000 0.000 0.000 0.000 0.000 0.000 0.000 0.000 0.000
25 8 11 0 0.000 0.000 0.000 0.000 0.000 0.000 0.000 0.000 0.000 0.000 0.000 0.000 0.000 0.000
25 10 9 0 0.000 0.000 0.000 0.000 0.000 0.000 0.000 0.000 0.000 0.000 0.000 0.000 0.000 0.000
25 11 3 0 0.000 0.000 0.000 0.000 0.000 0.000 0.000 0.000 0.000 0.000 0.000 0.000 0.000 0.000
25 11 5 0 0.000 0.000 0.000 0.000 0.000 0.000 0.000 0.000 0.000 0.000 0.000 0.000 0.000 0.000
25 11 6 0 0.000 0.000 0.000 0.000 0.000 0.000 0.000 0.000 0.000 0.000 0.000 0.000 0.000 0.000
25 11 8 0 0.000 0.000 0.000 0.000 0.000 0.000 0.000 0.000 0.000 0.000 0.000 0.000 0.000 0.000
26 4 11 0 0.000 0.000 0.000 0.000 0.000 0.000 0.000 0.000 0.000 0.000 0.000 0.000 0.000 0.000
26 5 11 0 0.000 0.000 0.000 0.000 0.000 0.000 0.000 0.000 0.000 0.000 0.000 0.000 0.000 0.000
26 6 11 0 0.000 0.000 0.000 0.000 0.000 0.000 0.000 0.000 0.000 0.000 0.000 0.000 0.000 0.000
26 7 11 0 0.000 0.000 0.000 0.000 0.000 0.000 0.000 0.000 0.000 0.000 0.000 0.000 0.000 0.000
26 11 4 0 0.000 0.000 0.000 0.000 0.000 0.000 0.000 0.000 0.000 0.000 0.000 0.000 0.000 0.000
26 11 5 0 0.000 0.000 0.000 0.000 0.000 0.000 0.000 0.000 0.000 0.000 0.000 0.000 0.000 0.000
26 11 6 0 0.000 0.000 0.000 0.000 0.000 0.000 0.000 0.000 0.000 0.000 0.000 0.000 0.000 0.000
26 11 7 0 0.000 0.000 0.000 0.000 0.000 0.000 0.000 0.000 0.000 0.000 0.000 0.000 0.000 0.000
27 1 10 0 0.000 0.000 0.000 0.000 0.000 0.000 0.000 0.000 0.000 0.000 0.000 0.000 0.000 0.000
27 3 11 0 0.000 0.000 0.000 0.000 0.000 0.000 0.000 0.000 0.000 0.000 0.000 0.000 0.000 0.000
27 8 11 0 0.000 0.000 0.000 0.000 0.000 0.000 0.000 0.000 0.000 0.000 0.000 0.000 0.000 0.000
27 10 9 0 0.000 0.000 0.000 0.000 0.000 0.000 0.000 0.000 0.000 0.000 0.000 0.000 0.000 0.000
27 11 3 0 0.000 0.000 0.000 0.000 0.000 0.000 0.000 0.000 0.000 0.000 0.000 0.000 0.000 0.000
27 11 8 0 0.000 0.000 0.000 0.000 0.000 0.000 0.000 0.000 0.000 0.000 0.000 0.000 0.000 0.000
29 2 11 0 0.000 0.000 0.000 0.000 0.000 0.000 0.000 0.000 0.000 0.000 0.000 0.000 0.000 0.000
29 9 11 0 0.000 0.000 0.000 0.000 0.000 0.000 0.000 0.000 0.000 0.000 0.000 0.000 0.000 0.000
29 11 2 0 0.000 0.000 0.000 0.000 0.000 0.000 0.000 0.000 0.000 0.000 0.000 0.000 0.000 0.000
29 11 9 0 0.000 0.000 0.000 0.000 0.000 0.000 0.000 0.000 0.000 0.000 0.000 0.000 0.000 0.000
30 5 12 0 0.000 0.000 0.000 0.000 0.000 0.000 0.000 0.000 0.000 0.000 0.000 0.000 0.000 0.000
30 7 12 0 0.000 0.000 0.000 0.000 0.000 0.000 0.000 0.000 0.000 0.000 0.000 0.000 0.000 0.000
30 12 5 0 0.000 0.000 0.000 0.000 0.000 0.000 0.000 0.000 0.000 0.000 0.000 0.000 0.000 0.000
30 12 7 0 0.000 0.000 0.000 0.000 0.000 0.000 0.000 0.000 0.000 0.000 0.000 0.000 0.000 0.000
31 4 12 0 0.000 0.000 0.000 0.000 0.000 0.000 0.000 0.000 0.000 0.000 0.000 0.000 0.000 0.000
31 8 12 0 0.000 0.000 0.000 0.000 0.000 0.000 0.000 0.000 0.000 0.000 0.000 0.000 0.000 0.000
31 12 4 0 0.000 0.000 0.000 0.000 0.000 0.000 0.000 0.000 0.000 0.000 0.000 0.000 0.000 0.000
31 12 8 0 0.000 0.000 0.000 0.000 0.000 0.000 0.000 0.000 0.000 0.000 0.000 0.000 0.000 0.000
32 1 11 0 0.000 0.000 0.000 0.000 0.000 0.000 0.000 0.000 0.000 0.000 0.000 0.000 0.000 0.000
32 6 12 0 0.000 0.000 0.000 0.000 0.000 0.000 0.000 0.000 0.000 0.000 0.000 0.000 0.000 0.000
32 11 10 0 0.000 0.000 0.000 0.000 0.000 0.000 0.000 0.000 0.000 0.000 0.000 0.000 0.000 0.000
32 12 6 0 0.000 0.000 0.000 0.000 0.000 0.000 0.000 0.000 0.000 0.000 0.000 0.000 0.000 0.000
34 3 11 0 0.000 0.000 0.000 0.000 0.000 0.000 0.000 0.000 0.000 0.000 0.000 0.000 0.000 0.000
34 8 11 0 0.000 0.000 0.000 0.000 0.000 0.000 0.000 0.000 0.000 0.000 0.000 0.000 0.000 0.000
34 11 5 0 0.000 0.000 0.000 0.000 0.000 0.000 0.000 0.000 0.000 0.000 0.000 0.000 0.000 0.000
34 11 6 0 0.000 0.000 0.000 0.000 0.000 0.000 0.000 0.000 0.000 0.000 0.000 0.000 0.000 0.000
34 11 7 0 0.000 0.000 0.000 0.000 0.000 0.000 0.000 0.000 0.000 0.000 0.000 0.000 0.000 0.000
35 4 10 0 0.000 0.000 0.000 0.000 0.000 0.000 0.000 0.000 0.000 0.000 0.000 0.000 0.000 0.000
35 5 10 0 0.000 0.000 0.000 0.000 0.000 0.000 0.000 0.000 0.000 0.000 0.000 0.000 0.000 0.000
35 6 10 0 0.000 0.000 0.000 0.000 0.000 0.000 0.000 0.000 0.000 0.000 0.000 0.000 0.000 0.000
35 10 2 0 0.000 0.000 0.000 0.000 0.000 0.000 0.000 0.000 0.000 0.000 0.000 0.000 0.000 0.000
35 10 7 0 0.000 0.000 0.000 0.000 0.000 0.000 0.000 0.000 0.000 0.000 0.000 0.000 0.000 0.000
36 3 11 0 0.000 0.000 0.000 0.000 0.000 0.000 0.000 0.000 0.000 0.000 0.000 0.000 0.000 0.000
36 8 11 0 0.000 0.000 0.000 0.000 0.000 0.000 0.000 0.000 0.000 0.000 0.000 0.000 0.000 0.000
36 11 5 0 0.000 0.000 0.000 0.000 0.000 0.000 0.000 0.000 0.000 0.000 0.000 0.000 0.000 0.000
36 11 6 0 0.000 0.000 0.000 0.000 0.000 0.000 0.000 0.000 0.000 0.000 0.000 0.000 0.000 0.000
36 11 7 0 0.000 0.000 0.000 0.000 0.000 0.000 0.000 0.000 0.000 0.000 0.000 0.000 0.000 0.000
37 4 10 0 0.000 0.000 0.000 0.000 0.000 0.000 0.000 0.000 0.000 0.000 0.000 0.000 0.000 0.000
37 5 10 0 0.000 0.000 0.000 0.000 0.000 0.000 0.000 0.000 0.000 0.000 0.000 0.000 0.000 0.000
37 6 10 0 0.000 0.000 0.000 0.000 0.000 0.000 0.000 0.000 0.000 0.000 0.000 0.000 0.000 0.000
37 10 2 0 0.000 0.000 0.000 0.000 0.000 0.000 0.000 0.000 0.000 0.000 0.000 0.000 0.000 0.000
37 10 7 0 0.000 0.000 0.000 0.000 0.000 0.000 0.000 0.000 0.000 0.000 0.000 0.000 0.000 0.000
38 3 10 0 0.000 0.000 0.000 0.000 0.000 0.000 0.000 0.000 0.000 0.000 0.000 0.000 0.000 0.000
38 7 10 0 0.000 0.000 0.000 0.000 0.000 0.000 0.000 0.000 0.000 0.000 0.000 0.000 0.000 0.000
38 10 5 0 0.000 0.000 0.000 0.000 0.000 0.000 0.000 0.000 0.000 0.000 0.000 0.000 0.000 0.000
38 10 6 0 0.000 0.000 0.000 0.000 0.000 0.000 0.000 0.000 0.000 0.000 0.000 0.000 0.000 0.000
39 4 9 0 0.000 0.000 0.000 0.000 0.000 0.000 0.000 0.000 0.000 0.000 0.000 0.000 0.000 0.000
39 5 9 0 0.000 0.000 0.000 0.000 0.000 0.000 0.000 0.000 0.000 0.000 0.000 0.000 0.000 0.000
39 9 2 0 0.000 0.000 0.000 0.000 0.000 0.000 0.000 0.000 0.000 0.000 0.000 0.000 0.000 0.000
39 9 6 0 0.000 0.000 0.000 0.000 0.000 0.000 0.000 0.000 0.000 0.000 0.000 0.000 0.000 0.000
40 3 9 0 0.000 0.000 0.000 0.000 0.000 0.000 0.000 0.000 0.000 0.000 0.000 0.000 0.000 0.000
40 4 9 0 0.000 0.000 0.000 0.000 0.000 0.000 0.000 0.000 0.000 0.000 0.000 0.000 0.000 0.000
40 5 9 0 0.000 0.000 0.000 0.000 0.000 0.000 0.000 0.000 0.000 0.000 0.000 0.000 0.000 0.000
40 6 9 0 0.000 0.000 0.000 0.000 0.000 0.000 0.000 0.000 0.000 0.000 0.000 0.000 0.000 0.000
41 8 2 0 0.000 0.000 0.000 0.000 0.000 0.000 0.000 0.000 0.000 0.000 0.000 0.000 0.000 0.000
41 8 3 0 0.000 0.000 0.000 0.000 0.000 0.000 0.000 0.000 0.000 0.000 0.000 0.000 0.000 0.000
41 8 4 0 0.000 0.000 0.000 0.000 0.000 0.000 0.000 0.000 0.000 0.000 0.000 0.000 0.000 0.000
41 8 5 0 0.000 0.000 0.000 0.000 0.000 0.000 0.000 0.000 0.000 0.000 0.000 0.000 0.000 0.000
42 3 9 0 0.000 0.000 0.000 0.000 0.000 0.000 0.000 0.000 0.000 0.000 0.000 0.000 0.000 0.000
42 4 9 0 0.000 0.000 0.000 0.000 0.000 0.000 0.000 0.000 0.000 0.000 0.000 0.000 0.000 0.000
42 5 9 0 0.000 0.000 0.000 0.000 0.000 0.000 0.000 0.000 0.000 0.000 0.000 0.000 0.000 0.000
42 6 9 0 0.000 0.000 0.000 0.000 0.000 0.000 0.000 0.000 0.000 0.000 0.000 0.000 0.000 0.000
43 8 2 0 0.000 0.000 0.000 0.000 0.000 0.000 0.000 0.000 0.000 0.000 0.000 0.000 0.000 0.000
43 8 3 0 0.000 0.000 0.000 0.000 0.000 0.000 0.000 0.000 0.000 0.000 0.000 0.000 0.000 0.000
43 8 4 0 0.000 0.000 0.000 0.000 0.000 0.000 0.000 0.000 0.000 0.000 0.000 0.000 0.000 0.000
43 8 5 0 0.000 0.000 0.000 0.000 0.000 0.000 0.000 0.000 0.000 0.000 0.000 0.000 0.000 0.000
44 3 8 0 0.000 0.000 0.000 0.000 0.000 0.000 0.000 0.000 0.000 0.000 0.000 0.000 0.000 0.000
44 4 8 0 0.000 0.000 0.000 0.000 0.000 0.000 0.000 0.000 0.000 0.000 0.000 0.000 0.000 0.000
44 5 8 0 0.000 0.000 0.000 0.000 0.000 0.000 0.000 0.000 0.000 0.000 0.000 0.000 0.000 0.000
45 7 2 0 0.000 0.000 0.000 0.000 0.000 0.000 0.000 0.000 0.000 0.000 0.000 0.000 0.000 0.000
45 7 3 0 0.000 0.000 0.000 0.000 0.000 0.000 0.000 0.000 0.000 0.000 0.000 0.000 0.000 0.000
45 7 4 0 0.000 0.000 0.000 0.000 0.000 0.000 0.000 0.000 0.000 0.000 0.000 0.000 0.000 0.000
46 3 8 0 0.000 0.000 0.000 0.000 0.000 0.000 0.000 0.000 0.000 0.000 0.000 0.000 0.000 0.000
46 4 8 0 0.000 0.000 0.000 0.000 0.000 0.000 0.000 0.000 0.000 0.000 0.000 0.000 0.000 0.000
46 5 8 0 0.000 0.000 0.000 0.000 0.000 0.000 0.000 0.000 0.000 0.000 0.000 0.000 0.000 0.000
47 7 2 0 0.000 0.000 0.000 0.000 0.000 0.000 0.000 0.000 0.000 0.000 0.000 0.000 0.000 0.000
47 7 3 0 0.000 0.000 0.000 0.000 0.000 0.000 0.000 0.000 0.000 0.000 0.000 0.000 0.000 0.000
47 7 4 0 0.000 0.000 0.000 0.000 0.000 0.000 0.000 0.000 0.000 0.000 0.000 0.000 0.000 0.000
